<?xml version="1.0" encoding="utf-8"?>
<!DOCTYPE eagle SYSTEM "eagle.dtd">
<eagle version="7.7.0">
<drawing>
<settings>
<setting alwaysvectorfont="no"/>
<setting verticaltext="up"/>
</settings>
<grid distance="0.05" unitdist="inch" unit="inch" style="lines" multiple="1" display="no" altdistance="0.025" altunitdist="inch" altunit="inch"/>
<layers>
<layer number="1" name="Top" color="4" fill="1" visible="yes" active="yes"/>
<layer number="2" name="Route2" color="1" fill="3" visible="no" active="no"/>
<layer number="3" name="Route3" color="4" fill="3" visible="no" active="no"/>
<layer number="14" name="Route14" color="1" fill="6" visible="no" active="no"/>
<layer number="15" name="Route15" color="4" fill="6" visible="no" active="no"/>
<layer number="16" name="Bottom" color="1" fill="1" visible="yes" active="yes"/>
<layer number="17" name="Pads" color="2" fill="1" visible="yes" active="yes"/>
<layer number="18" name="Vias" color="2" fill="1" visible="yes" active="yes"/>
<layer number="19" name="Unrouted" color="6" fill="1" visible="yes" active="yes"/>
<layer number="20" name="Dimension" color="15" fill="1" visible="yes" active="yes"/>
<layer number="21" name="tPlace" color="7" fill="1" visible="yes" active="yes"/>
<layer number="22" name="bPlace" color="7" fill="1" visible="yes" active="yes"/>
<layer number="23" name="tOrigins" color="15" fill="1" visible="yes" active="yes"/>
<layer number="24" name="bOrigins" color="15" fill="1" visible="yes" active="yes"/>
<layer number="25" name="tNames" color="7" fill="1" visible="yes" active="yes"/>
<layer number="26" name="bNames" color="7" fill="1" visible="yes" active="yes"/>
<layer number="27" name="tValues" color="7" fill="1" visible="yes" active="yes"/>
<layer number="28" name="bValues" color="7" fill="1" visible="yes" active="yes"/>
<layer number="29" name="tStop" color="7" fill="3" visible="no" active="yes"/>
<layer number="30" name="bStop" color="7" fill="6" visible="no" active="yes"/>
<layer number="31" name="tCream" color="7" fill="4" visible="no" active="yes"/>
<layer number="32" name="bCream" color="7" fill="5" visible="no" active="yes"/>
<layer number="33" name="tFinish" color="6" fill="3" visible="no" active="yes"/>
<layer number="34" name="bFinish" color="6" fill="6" visible="no" active="yes"/>
<layer number="35" name="tGlue" color="7" fill="4" visible="no" active="yes"/>
<layer number="36" name="bGlue" color="7" fill="5" visible="no" active="yes"/>
<layer number="37" name="tTest" color="7" fill="1" visible="no" active="yes"/>
<layer number="38" name="bTest" color="7" fill="1" visible="no" active="yes"/>
<layer number="39" name="tKeepout" color="4" fill="11" visible="yes" active="yes"/>
<layer number="40" name="bKeepout" color="1" fill="11" visible="yes" active="yes"/>
<layer number="41" name="tRestrict" color="4" fill="10" visible="yes" active="yes"/>
<layer number="42" name="bRestrict" color="1" fill="10" visible="yes" active="yes"/>
<layer number="43" name="vRestrict" color="2" fill="10" visible="yes" active="yes"/>
<layer number="44" name="Drills" color="7" fill="1" visible="no" active="yes"/>
<layer number="45" name="Holes" color="7" fill="1" visible="no" active="yes"/>
<layer number="46" name="Milling" color="3" fill="1" visible="no" active="yes"/>
<layer number="47" name="Measures" color="7" fill="1" visible="no" active="yes"/>
<layer number="48" name="Document" color="7" fill="1" visible="yes" active="yes"/>
<layer number="49" name="Reference" color="7" fill="1" visible="yes" active="yes"/>
<layer number="51" name="tDocu" color="7" fill="1" visible="yes" active="yes"/>
<layer number="52" name="bDocu" color="7" fill="1" visible="yes" active="yes"/>
<layer number="90" name="Modules" color="5" fill="1" visible="no" active="no"/>
<layer number="91" name="Nets" color="2" fill="1" visible="no" active="no"/>
<layer number="92" name="Busses" color="1" fill="1" visible="no" active="no"/>
<layer number="93" name="Pins" color="2" fill="1" visible="no" active="no"/>
<layer number="94" name="Symbols" color="4" fill="1" visible="no" active="no"/>
<layer number="95" name="Names" color="7" fill="1" visible="no" active="no"/>
<layer number="96" name="Values" color="7" fill="1" visible="no" active="no"/>
<layer number="97" name="Info" color="7" fill="1" visible="no" active="no"/>
<layer number="98" name="Guide" color="6" fill="1" visible="no" active="no"/>
<layer number="99" name="SpiceOrder" color="5" fill="1" visible="no" active="no"/>
</layers>
<board>
<plain>
<wire x1="0" y1="0" x2="110.47" y2="0" width="0" layer="20"/>
<wire x1="110.47" y1="0" x2="110.47" y2="56.82" width="0" layer="20"/>
<wire x1="110.47" y1="56.82" x2="0" y2="56.82" width="0" layer="20"/>
<wire x1="0" y1="56.82" x2="0" y2="0" width="0" layer="20"/>
</plain>
<libraries>
<library name="capacitor-wima">
<description>&lt;b&gt;WIMA Capacitors&lt;/b&gt;&lt;p&gt;
&lt;author&gt;Created by librarian@cadsoft.de&lt;/author&gt;</description>
<packages>
<package name="C27.5B13">
<description>&lt;B&gt;MKS4&lt;/B&gt;, 31.6 x 13 mm, grid 27.5 mm</description>
<wire x1="-15.24" y1="6.604" x2="15.24" y2="6.604" width="0.1524" layer="21"/>
<wire x1="15.748" y1="6.096" x2="15.748" y2="-6.096" width="0.1524" layer="21"/>
<wire x1="15.24" y1="-6.604" x2="-15.24" y2="-6.604" width="0.1524" layer="21"/>
<wire x1="-15.748" y1="-6.096" x2="-15.748" y2="6.096" width="0.1524" layer="21"/>
<wire x1="-6.731" y1="1.905" x2="-6.731" y2="0" width="0.4064" layer="21"/>
<wire x1="-6.731" y1="0" x2="-6.731" y2="-1.905" width="0.4064" layer="21"/>
<wire x1="-7.62" y1="1.905" x2="-7.62" y2="0" width="0.4064" layer="21"/>
<wire x1="-7.62" y1="0" x2="-7.62" y2="-1.905" width="0.4064" layer="21"/>
<wire x1="15.24" y1="6.604" x2="15.748" y2="6.096" width="0.1524" layer="21" curve="-90"/>
<wire x1="15.24" y1="-6.604" x2="15.748" y2="-6.096" width="0.1524" layer="21" curve="90"/>
<wire x1="-15.748" y1="-6.096" x2="-15.24" y2="-6.604" width="0.1524" layer="21" curve="90"/>
<wire x1="-15.748" y1="6.096" x2="-15.24" y2="6.604" width="0.1524" layer="21" curve="-90"/>
<wire x1="-11.557" y1="0" x2="-7.62" y2="0" width="0.1524" layer="21"/>
<wire x1="-6.731" y1="0" x2="11.557" y2="0" width="0.1524" layer="21"/>
<pad name="1" x="-13.716" y="0" drill="1.1938" diameter="3.1496" shape="octagon"/>
<pad name="2" x="13.716" y="0" drill="1.1938" diameter="3.1496" shape="octagon"/>
<text x="-13.716" y="6.858" size="1.778" layer="25" ratio="10">&gt;NAME</text>
<text x="-5.08" y="-2.54" size="1.778" layer="27" ratio="10">&gt;VALUE</text>
</package>
</packages>
</library>
<library name="diode">
<description>&lt;b&gt;Diodes&lt;/b&gt;&lt;p&gt;
Based on the following sources:
&lt;ul&gt;
&lt;li&gt;Motorola : www.onsemi.com
&lt;li&gt;Fairchild : www.fairchildsemi.com
&lt;li&gt;Philips : www.semiconductors.com
&lt;li&gt;Vishay : www.vishay.de
&lt;/ul&gt;
&lt;author&gt;Created by librarian@cadsoft.de&lt;/author&gt;</description>
<packages>
<package name="DO34Z7">
<description>&lt;B&gt;DIODE&lt;/B&gt;&lt;p&gt;
diameter 1.8 mm, horizontal, grid 7.62 mm</description>
<wire x1="-1.524" y1="-0.889" x2="1.524" y2="-0.889" width="0.1524" layer="21"/>
<wire x1="1.524" y1="0.889" x2="-1.524" y2="0.889" width="0.1524" layer="21"/>
<wire x1="1.524" y1="-0.889" x2="1.524" y2="0.889" width="0.1524" layer="21"/>
<wire x1="-1.524" y1="0.889" x2="-1.524" y2="-0.889" width="0.1524" layer="21"/>
<wire x1="3.81" y1="0" x2="2.921" y2="0" width="0.508" layer="51"/>
<wire x1="-3.81" y1="0" x2="-2.921" y2="0" width="0.508" layer="51"/>
<wire x1="-0.508" y1="0" x2="-0.127" y2="0" width="0.1524" layer="21"/>
<wire x1="0.889" y1="0.508" x2="0.889" y2="-0.508" width="0.1524" layer="21"/>
<wire x1="0.889" y1="-0.508" x2="-0.127" y2="0" width="0.1524" layer="21"/>
<wire x1="-0.127" y1="0" x2="1.27" y2="0" width="0.1524" layer="21"/>
<wire x1="-0.127" y1="0" x2="0.889" y2="0.508" width="0.1524" layer="21"/>
<wire x1="-0.127" y1="0" x2="-0.127" y2="-0.508" width="0.1524" layer="21"/>
<wire x1="0.127" y1="0.508" x2="-0.127" y2="0.508" width="0.1524" layer="21"/>
<wire x1="-0.127" y1="0.508" x2="-0.127" y2="0" width="0.1524" layer="21"/>
<pad name="C" x="-3.81" y="0" drill="0.8128" shape="long"/>
<pad name="A" x="3.81" y="0" drill="0.8128" shape="long"/>
<text x="-1.524" y="1.143" size="1.27" layer="25" ratio="10">&gt;NAME</text>
<text x="-1.524" y="-2.413" size="1.27" layer="27" ratio="10">&gt;VALUE</text>
<rectangle x1="-1.143" y1="-0.889" x2="-0.762" y2="0.889" layer="21"/>
<rectangle x1="1.524" y1="-0.254" x2="2.921" y2="0.254" layer="21"/>
<rectangle x1="-2.921" y1="-0.254" x2="-1.524" y2="0.254" layer="21"/>
</package>
<package name="DO15-12">
<description>&lt;B&gt;DIODE&lt;/B&gt;&lt;p&gt;
diameter 3.5 mm, horizontal, grid 12.7 mm</description>
<wire x1="-3.81" y1="-1.778" x2="3.81" y2="-1.778" width="0.1524" layer="21"/>
<wire x1="3.81" y1="1.778" x2="-3.81" y2="1.778" width="0.1524" layer="21"/>
<wire x1="3.81" y1="-1.778" x2="3.81" y2="1.778" width="0.1524" layer="21"/>
<wire x1="-3.81" y1="1.778" x2="-3.81" y2="-1.778" width="0.1524" layer="21"/>
<wire x1="6.35" y1="0" x2="5.334" y2="0" width="0.762" layer="51"/>
<wire x1="-6.35" y1="0" x2="-5.334" y2="0" width="0.762" layer="51"/>
<pad name="C" x="-6.35" y="0" drill="1.1176" shape="long"/>
<pad name="A" x="6.35" y="0" drill="1.1176" shape="long"/>
<text x="-3.683" y="2.159" size="1.27" layer="25" ratio="10">&gt;NAME</text>
<text x="-2.159" y="-1.397" size="1.27" layer="27" ratio="10">&gt;VALUE</text>
<rectangle x1="-3.048" y1="-1.778" x2="-2.413" y2="1.778" layer="21"/>
<rectangle x1="-5.207" y1="-0.381" x2="-3.81" y2="0.381" layer="21"/>
<rectangle x1="3.81" y1="-0.381" x2="5.207" y2="0.381" layer="21"/>
</package>
</packages>
</library>
<library name="inductors">
<description>&lt;b&gt;Inductors and Filters&lt;/b&gt;&lt;p&gt;
Based on the previous library ind-a.lbr&lt;p&gt;
&lt;author&gt;Created by librarian@cadsoft.de&lt;/author&gt;</description>
<packages>
<package name="ED22">
<description>&lt;B&gt;INDUCTOR&lt;/B&gt;</description>
<wire x1="-5.969" y1="-0.381" x2="-10.541" y2="-1.143" width="0.8128" layer="51"/>
<wire x1="-5.715" y1="-1.27" x2="-10.16" y2="-2.794" width="0.8128" layer="51"/>
<wire x1="-5.842" y1="0.635" x2="-10.541" y2="1.27" width="0.8128" layer="51"/>
<wire x1="-5.461" y1="-2.286" x2="-9.398" y2="-4.699" width="0.8128" layer="21"/>
<wire x1="-5.08" y1="-3.175" x2="-8.636" y2="-6.096" width="0.8128" layer="21"/>
<wire x1="-4.572" y1="-3.937" x2="-7.747" y2="-7.239" width="0.8128" layer="21"/>
<wire x1="-3.937" y1="-4.572" x2="-6.731" y2="-8.128" width="0.8128" layer="21"/>
<wire x1="-3.175" y1="-5.08" x2="-5.588" y2="-9.017" width="0.8128" layer="21"/>
<wire x1="-2.413" y1="-5.588" x2="-4.318" y2="-9.652" width="0.8128" layer="21"/>
<wire x1="-1.524" y1="-5.842" x2="-2.667" y2="-10.287" width="0.8128" layer="21"/>
<wire x1="-0.635" y1="-5.969" x2="-1.143" y2="-10.541" width="0.8128" layer="21"/>
<wire x1="0.254" y1="-5.969" x2="0.635" y2="-10.541" width="0.8128" layer="21"/>
<wire x1="1.143" y1="-5.842" x2="2.54" y2="-10.287" width="0.8128" layer="21"/>
<wire x1="2.159" y1="-5.588" x2="3.937" y2="-9.779" width="0.8128" layer="21"/>
<wire x1="3.048" y1="-5.207" x2="5.207" y2="-9.271" width="0.8128" layer="21"/>
<wire x1="3.683" y1="-4.699" x2="6.604" y2="-8.255" width="0.8128" layer="21"/>
<wire x1="4.445" y1="-4.064" x2="7.747" y2="-7.112" width="0.8128" layer="21"/>
<wire x1="4.953" y1="-3.429" x2="8.763" y2="-5.969" width="0.8128" layer="21"/>
<wire x1="5.334" y1="-2.667" x2="9.652" y2="-4.572" width="0.8128" layer="21"/>
<wire x1="5.715" y1="-1.778" x2="10.16" y2="-2.921" width="0.8128" layer="21"/>
<wire x1="5.842" y1="-0.889" x2="10.541" y2="-1.524" width="0.8128" layer="21"/>
<wire x1="5.842" y1="0" x2="10.541" y2="0" width="0.8128" layer="21"/>
<wire x1="5.842" y1="0.889" x2="10.414" y2="1.397" width="0.8128" layer="21"/>
<wire x1="5.588" y1="1.778" x2="10.16" y2="3.048" width="0.8128" layer="21"/>
<wire x1="5.334" y1="2.54" x2="9.652" y2="4.699" width="0.8128" layer="21"/>
<wire x1="4.826" y1="3.429" x2="8.636" y2="6.096" width="0.8128" layer="21"/>
<wire x1="4.318" y1="4.191" x2="7.747" y2="7.366" width="0.8128" layer="21"/>
<wire x1="3.556" y1="4.826" x2="6.477" y2="8.509" width="0.8128" layer="21"/>
<wire x1="2.794" y1="5.207" x2="4.953" y2="9.398" width="0.8128" layer="21"/>
<wire x1="1.905" y1="5.588" x2="3.429" y2="10.033" width="0.8128" layer="21"/>
<wire x1="1.143" y1="5.842" x2="1.905" y2="10.287" width="0.8128" layer="21"/>
<wire x1="0.254" y1="5.842" x2="0.508" y2="10.541" width="0.8128" layer="21"/>
<wire x1="-0.635" y1="5.842" x2="-1.143" y2="10.541" width="0.8128" layer="21"/>
<wire x1="-1.524" y1="5.715" x2="-3.048" y2="10.033" width="0.8128" layer="21"/>
<wire x1="-2.54" y1="5.461" x2="-4.572" y2="9.398" width="0.8128" layer="21"/>
<wire x1="-3.302" y1="4.953" x2="-6.223" y2="8.509" width="0.8128" layer="21"/>
<wire x1="-4.064" y1="4.318" x2="-7.493" y2="7.493" width="0.8128" layer="21"/>
<wire x1="-4.699" y1="3.556" x2="-8.509" y2="6.35" width="0.8128" layer="21"/>
<wire x1="-5.334" y1="2.54" x2="-9.525" y2="4.445" width="0.8128" layer="21"/>
<wire x1="-5.715" y1="1.651" x2="-10.16" y2="2.921" width="0.8128" layer="51"/>
<wire x1="-10.0457" y1="-1.5197" x2="-10.0457" y2="1.5197" width="0.1524" layer="21" curve="342.795197"/>
<wire x1="-6.1671" y1="-1.513" x2="-6.1671" y2="1.513" width="0.1524" layer="21" curve="332.431283"/>
<wire x1="-10.0457" y1="1.5197" x2="-10.0457" y2="-1.5197" width="0.1524" layer="51" curve="17.204803"/>
<wire x1="-6.1671" y1="1.513" x2="-6.1671" y2="-1.513" width="0.1524" layer="51" curve="27.568717"/>
<pad name="2" x="-5.715" y="0" drill="1.016" shape="long" rot="R90"/>
<pad name="1" x="-10.795" y="0" drill="1.016" shape="long" rot="R90"/>
<text x="-3.81" y="11.43" size="1.778" layer="25" ratio="10">&gt;NAME</text>
<text x="-4.699" y="-13.335" size="1.778" layer="27" ratio="10">&gt;VALUE</text>
<text x="-3.175" y="1.905" size="1.27" layer="21" ratio="10">DÝ0,8</text>
</package>
</packages>
</library>
<library name="transistor-power">
<description>&lt;b&gt;Power Transistors&lt;/b&gt;&lt;p&gt;
&lt;author&gt;Created by librarian@cadsoft.de&lt;/author&gt;</description>
<packages>
<package name="TO220BV">
<description>&lt;b&gt;Molded Package&lt;/b&gt;&lt;p&gt;
grid 2.54 mm</description>
<wire x1="4.699" y1="-4.318" x2="4.953" y2="-4.064" width="0.1524" layer="21"/>
<wire x1="4.699" y1="-4.318" x2="-4.699" y2="-4.318" width="0.1524" layer="21"/>
<wire x1="-4.953" y1="-4.064" x2="-4.699" y2="-4.318" width="0.1524" layer="21"/>
<wire x1="5.08" y1="-1.143" x2="4.953" y2="-4.064" width="0.1524" layer="21"/>
<wire x1="-4.953" y1="-4.064" x2="-5.08" y2="-1.143" width="0.1524" layer="21"/>
<circle x="-4.4958" y="-3.7084" radius="0.254" width="0" layer="21"/>
<pad name="G" x="-2.54" y="-2.54" drill="1.016" shape="long" rot="R90"/>
<pad name="D" x="0" y="-2.54" drill="1.016" shape="long" rot="R90"/>
<pad name="S" x="2.54" y="-2.54" drill="1.016" shape="long" rot="R90"/>
<text x="-5.08" y="-6.0452" size="1.27" layer="25" ratio="10">&gt;NAME</text>
<text x="-5.08" y="-7.62" size="1.27" layer="27" ratio="10">&gt;VALUE</text>
<rectangle x1="-5.334" y1="-0.762" x2="5.334" y2="0" layer="21"/>
<rectangle x1="-5.334" y1="-1.27" x2="-3.429" y2="-0.762" layer="21"/>
<rectangle x1="-1.651" y1="-1.27" x2="-0.889" y2="-0.762" layer="21"/>
<rectangle x1="-3.429" y1="-1.27" x2="-1.651" y2="-0.762" layer="51"/>
<rectangle x1="0.889" y1="-1.27" x2="1.651" y2="-0.762" layer="21"/>
<rectangle x1="3.429" y1="-1.27" x2="5.334" y2="-0.762" layer="21"/>
<rectangle x1="-0.889" y1="-1.27" x2="0.889" y2="-0.762" layer="51"/>
<rectangle x1="1.651" y1="-1.27" x2="3.429" y2="-0.762" layer="51"/>
</package>
</packages>
</library>
<library name="rcl">
<description>&lt;b&gt;Resistors, Capacitors, Inductors&lt;/b&gt;&lt;p&gt;
Based on the previous libraries:
&lt;ul&gt;
&lt;li&gt;r.lbr
&lt;li&gt;cap.lbr 
&lt;li&gt;cap-fe.lbr
&lt;li&gt;captant.lbr
&lt;li&gt;polcap.lbr
&lt;li&gt;ipc-smd.lbr
&lt;/ul&gt;
All SMD packages are defined according to the IPC specifications and  CECC&lt;p&gt;
&lt;author&gt;Created by librarian@cadsoft.de&lt;/author&gt;&lt;p&gt;
&lt;p&gt;
for Electrolyt Capacitors see also :&lt;p&gt;
www.bccomponents.com &lt;p&gt;
www.panasonic.com&lt;p&gt;
www.kemet.com&lt;p&gt;
http://www.secc.co.jp/pdf/os_e/2004/e_os_all.pdf &lt;b&gt;(SANYO)&lt;/b&gt;
&lt;p&gt;
for trimmer refence see : &lt;u&gt;www.electrospec-inc.com/cross_references/trimpotcrossref.asp&lt;/u&gt;&lt;p&gt;

&lt;table border=0 cellspacing=0 cellpadding=0 width="100%" cellpaddding=0&gt;
&lt;tr valign="top"&gt;

&lt;! &lt;td width="10"&gt;&amp;nbsp;&lt;/td&gt;
&lt;td width="90%"&gt;

&lt;b&gt;&lt;font color="#0000FF" size="4"&gt;TRIM-POT CROSS REFERENCE&lt;/font&gt;&lt;/b&gt;
&lt;P&gt;
&lt;TABLE BORDER=0 CELLSPACING=1 CELLPADDING=2&gt;
  &lt;TR&gt;
    &lt;TD COLSPAN=8&gt;
      &lt;FONT SIZE=3 FACE=ARIAL&gt;&lt;B&gt;RECTANGULAR MULTI-TURN&lt;/B&gt;&lt;/FONT&gt;
    &lt;/TD&gt;
  &lt;/TR&gt;
  &lt;TR&gt;
    &lt;TD ALIGN=CENTER&gt;
      &lt;B&gt;
      &lt;FONT SIZE=3 FACE=ARIAL color="#FF0000"&gt;BOURNS&lt;/FONT&gt;
      &lt;/B&gt;
    &lt;/TD&gt;
    &lt;TD ALIGN=CENTER&gt;
      &lt;B&gt;
      &lt;FONT SIZE=3 FACE=ARIAL color="#FF0000"&gt;BI&amp;nbsp;TECH&lt;/FONT&gt;
      &lt;/B&gt;
    &lt;/TD&gt;
    &lt;TD ALIGN=CENTER&gt;
      &lt;B&gt;
      &lt;FONT SIZE=3 FACE=ARIAL color="#FF0000"&gt;DALE-VISHAY&lt;/FONT&gt;
      &lt;/B&gt;
    &lt;/TD&gt;
    &lt;TD ALIGN=CENTER&gt;
      &lt;B&gt;
      &lt;FONT SIZE=3 FACE=ARIAL color="#FF0000"&gt;PHILIPS/MEPCO&lt;/FONT&gt;
      &lt;/B&gt;
    &lt;/TD&gt;
    &lt;TD ALIGN=CENTER&gt;
      &lt;B&gt;
      &lt;FONT SIZE=3 FACE=ARIAL color="#FF0000"&gt;MURATA&lt;/FONT&gt;
      &lt;/B&gt;
    &lt;/TD&gt;
    &lt;TD ALIGN=CENTER&gt;
      &lt;B&gt;
      &lt;FONT SIZE=3 FACE=ARIAL color="#FF0000"&gt;PANASONIC&lt;/FONT&gt;
      &lt;/B&gt;
    &lt;/TD&gt;
    &lt;TD ALIGN=CENTER&gt;
      &lt;B&gt;
      &lt;FONT SIZE=3 FACE=ARIAL color="#FF0000"&gt;SPECTROL&lt;/FONT&gt;
      &lt;/B&gt;
    &lt;/TD&gt;
    &lt;TD ALIGN=CENTER&gt;
      &lt;B&gt;
      &lt;FONT SIZE=3 FACE=ARIAL color="#FF0000"&gt;MILSPEC&lt;/FONT&gt;
      &lt;/B&gt;
    &lt;/TD&gt;&lt;TD&gt;&amp;nbsp;&lt;/TD&gt;
  &lt;/TR&gt;
  &lt;TR&gt;
    &lt;TD BGCOLOR="#cccccc" ALIGN=CENTER&gt;&lt;FONT FACE=ARIAL SIZE=3 &gt;
      3005P&lt;BR&gt;
      3006P&lt;BR&gt;
      3006W&lt;BR&gt;
      3006Y&lt;BR&gt;
      3009P&lt;BR&gt;
      3009W&lt;BR&gt;
      3009Y&lt;BR&gt;
      3057J&lt;BR&gt;
      3057L&lt;BR&gt;
      3057P&lt;BR&gt;
      3057Y&lt;BR&gt;
      3059J&lt;BR&gt;
      3059L&lt;BR&gt;
      3059P&lt;BR&gt;
      3059Y&lt;BR&gt;&lt;/FONT&gt;
    &lt;/TD&gt;
    &lt;TD BGCOLOR="#cccccc" ALIGN=CENTER&gt;&lt;FONT FACE=ARIAL SIZE=3&gt;
      -&lt;BR&gt;
      89P&lt;BR&gt;
      89W&lt;BR&gt;
      89X&lt;BR&gt;
      89PH&lt;BR&gt;
      76P&lt;BR&gt;
      89XH&lt;BR&gt;
      78SLT&lt;BR&gt;
      78L&amp;nbsp;ALT&lt;BR&gt;
      56P&amp;nbsp;ALT&lt;BR&gt;
      78P&amp;nbsp;ALT&lt;BR&gt;
      T8S&lt;BR&gt;
      78L&lt;BR&gt;
      56P&lt;BR&gt;
      78P&lt;BR&gt;&lt;/FONT&gt;
    &lt;/TD&gt;
    &lt;TD BGCOLOR="#cccccc" ALIGN=CENTER&gt;&lt;FONT FACE=ARIAL SIZE=3&gt;
      -&lt;BR&gt;
      T18/784&lt;BR&gt;
      783&lt;BR&gt;
      781&lt;BR&gt;
      -&lt;BR&gt;
      -&lt;BR&gt;
      -&lt;BR&gt;
      2199&lt;BR&gt;
      1697/1897&lt;BR&gt;
      1680/1880&lt;BR&gt;
      2187&lt;BR&gt;
      -&lt;BR&gt;
      -&lt;BR&gt;
      -&lt;BR&gt;
      -&lt;BR&gt;&lt;/FONT&gt;
    &lt;/TD&gt;
    &lt;TD BGCOLOR="#cccccc" ALIGN=CENTER&gt;&lt;FONT FACE=ARIAL SIZE=3&gt;
      -&lt;BR&gt;
      8035EKP/CT20/RJ-20P&lt;BR&gt;
      -&lt;BR&gt;
      RJ-20X&lt;BR&gt;
      -&lt;BR&gt;
      -&lt;BR&gt;
      -&lt;BR&gt;
      1211L&lt;BR&gt;
      8012EKQ&amp;nbsp;ALT&lt;BR&gt;
      8012EKR&amp;nbsp;ALT&lt;BR&gt;
      1211P&lt;BR&gt;
      8012EKJ&lt;BR&gt;
      8012EKL&lt;BR&gt;
      8012EKQ&lt;BR&gt;
      8012EKR&lt;BR&gt;&lt;/FONT&gt;
    &lt;/TD&gt;
    &lt;TD BGCOLOR="#cccccc" ALIGN=CENTER&gt;&lt;FONT FACE=ARIAL SIZE=3&gt;
      -&lt;BR&gt;
      2101P&lt;BR&gt;
      2101W&lt;BR&gt;
      2101Y&lt;BR&gt;
      -&lt;BR&gt;
      -&lt;BR&gt;
      -&lt;BR&gt;
      -&lt;BR&gt;
      -&lt;BR&gt;
      -&lt;BR&gt;
      -&lt;BR&gt;
      -&lt;BR&gt;
      2102L&lt;BR&gt;
      2102S&lt;BR&gt;
      2102Y&lt;BR&gt;&lt;/FONT&gt;
    &lt;/TD&gt;
    &lt;TD BGCOLOR="#cccccc" ALIGN=CENTER&gt;&lt;FONT FACE=ARIAL SIZE=3&gt;
      -&lt;BR&gt;
      EVMCOG&lt;BR&gt;
      -&lt;BR&gt;
      -&lt;BR&gt;
      -&lt;BR&gt;
      -&lt;BR&gt;
      -&lt;BR&gt;
      -&lt;BR&gt;
      -&lt;BR&gt;
      -&lt;BR&gt;
      -&lt;BR&gt;
      -&lt;BR&gt;
      -&lt;BR&gt;
      -&lt;BR&gt;
      -&lt;BR&gt;&lt;/FONT&gt;
    &lt;/TD&gt;
    &lt;TD BGCOLOR="#cccccc" ALIGN=CENTER&gt;&lt;FONT FACE=ARIAL SIZE=3&gt;
      -&lt;BR&gt;
      43P&lt;BR&gt;
      43W&lt;BR&gt;
      43Y&lt;BR&gt;
      -&lt;BR&gt;
      -&lt;BR&gt;
      -&lt;BR&gt;
      -&lt;BR&gt;
      40L&lt;BR&gt;
      40P&lt;BR&gt;
      40Y&lt;BR&gt;
      70Y-T602&lt;BR&gt;
      70L&lt;BR&gt;
      70P&lt;BR&gt;
      70Y&lt;BR&gt;&lt;/FONT&gt;
    &lt;/TD&gt;
    &lt;TD BGCOLOR="#cccccc" ALIGN=CENTER&gt;&lt;FONT FACE=ARIAL SIZE=3&gt;
      -&lt;BR&gt;
      -&lt;BR&gt;
      -&lt;BR&gt;
      -&lt;BR&gt;
      -&lt;BR&gt;
      -&lt;BR&gt;
      -&lt;BR&gt;
      -&lt;BR&gt;
      RT/RTR12&lt;BR&gt;
      RT/RTR12&lt;BR&gt;
      RT/RTR12&lt;BR&gt;
      -&lt;BR&gt;
      RJ/RJR12&lt;BR&gt;
      RJ/RJR12&lt;BR&gt;
      RJ/RJR12&lt;BR&gt;&lt;/FONT&gt;
    &lt;/TD&gt;
  &lt;/TR&gt;
  &lt;TR&gt;
    &lt;TD COLSPAN=8&gt;&amp;nbsp;
    &lt;/TD&gt;
  &lt;/TR&gt;
  &lt;TR&gt;
    &lt;TD COLSPAN=8&gt;
      &lt;FONT SIZE=4 FACE=ARIAL&gt;&lt;B&gt;SQUARE MULTI-TURN&lt;/B&gt;&lt;/FONT&gt;
    &lt;/TD&gt;
  &lt;/TR&gt;
  &lt;TR&gt;
   &lt;TD ALIGN=CENTER&gt;
      &lt;FONT SIZE=3 FACE=ARIAL&gt;&lt;B&gt;BOURN&lt;/B&gt;&lt;/FONT&gt;
    &lt;/TD&gt;
    &lt;TD ALIGN=CENTER&gt;
      &lt;FONT SIZE=3 FACE=ARIAL&gt;&lt;B&gt;BI&amp;nbsp;TECH&lt;/B&gt;&lt;/FONT&gt;
    &lt;/TD&gt;
    &lt;TD ALIGN=CENTER&gt;
      &lt;FONT SIZE=3 FACE=ARIAL&gt;&lt;B&gt;DALE-VISHAY&lt;/B&gt;&lt;/FONT&gt;
    &lt;/TD&gt;
    &lt;TD ALIGN=CENTER&gt;
      &lt;FONT SIZE=3 FACE=ARIAL&gt;&lt;B&gt;PHILIPS/MEPCO&lt;/B&gt;&lt;/FONT&gt;
    &lt;/TD&gt;
    &lt;TD ALIGN=CENTER&gt;
      &lt;FONT SIZE=3 FACE=ARIAL&gt;&lt;B&gt;MURATA&lt;/B&gt;&lt;/FONT&gt;
    &lt;/TD&gt;
    &lt;TD ALIGN=CENTER&gt;
      &lt;FONT SIZE=3 FACE=ARIAL&gt;&lt;B&gt;PANASONIC&lt;/B&gt;&lt;/FONT&gt;
    &lt;/TD&gt;
    &lt;TD ALIGN=CENTER&gt;
      &lt;FONT SIZE=3 FACE=ARIAL&gt;&lt;B&gt;SPECTROL&lt;/B&gt;&lt;/FONT&gt;
    &lt;/TD&gt;
    &lt;TD ALIGN=CENTER&gt;
      &lt;FONT SIZE=3 FACE=ARIAL&gt;&lt;B&gt;MILSPEC&lt;/B&gt;&lt;/FONT&gt;
    &lt;/TD&gt;
  &lt;/TR&gt;
  &lt;TR&gt;
    &lt;TD BGCOLOR="#cccccc" ALIGN=CENTER&gt;&lt;FONT FACE=ARIAL SIZE=3&gt;
      3250L&lt;BR&gt;
      3250P&lt;BR&gt;
      3250W&lt;BR&gt;
      3250X&lt;BR&gt;
      3252P&lt;BR&gt;
      3252W&lt;BR&gt;
      3252X&lt;BR&gt;
      3260P&lt;BR&gt;
      3260W&lt;BR&gt;
      3260X&lt;BR&gt;
      3262P&lt;BR&gt;
      3262W&lt;BR&gt;
      3262X&lt;BR&gt;
      3266P&lt;BR&gt;
      3266W&lt;BR&gt;
      3266X&lt;BR&gt;
      3290H&lt;BR&gt;
      3290P&lt;BR&gt;
      3290W&lt;BR&gt;
      3292P&lt;BR&gt;
      3292W&lt;BR&gt;
      3292X&lt;BR&gt;
      3296P&lt;BR&gt;
      3296W&lt;BR&gt;
      3296X&lt;BR&gt;
      3296Y&lt;BR&gt;
      3296Z&lt;BR&gt;
      3299P&lt;BR&gt;
      3299W&lt;BR&gt;
      3299X&lt;BR&gt;
      3299Y&lt;BR&gt;
      3299Z&lt;BR&gt;&lt;/FONT&gt;
    &lt;/TD&gt;
    &lt;TD BGCOLOR="#cccccc" ALIGN=CENTER&gt;&lt;FONT FACE=ARIAL SIZE=3&gt;
      -&lt;BR&gt;
      66P&amp;nbsp;ALT&lt;BR&gt;
      66W&amp;nbsp;ALT&lt;BR&gt;
      66X&amp;nbsp;ALT&lt;BR&gt;
      66P&amp;nbsp;ALT&lt;BR&gt;
      66W&amp;nbsp;ALT&lt;BR&gt;
      66X&amp;nbsp;ALT&lt;BR&gt;
      -&lt;BR&gt;
      64W&amp;nbsp;ALT&lt;BR&gt;
      -&lt;BR&gt;
      64P&amp;nbsp;ALT&lt;BR&gt;
      64W&amp;nbsp;ALT&lt;BR&gt;
      64X&amp;nbsp;ALT&lt;BR&gt;
      64P&lt;BR&gt;
      64W&lt;BR&gt;
      64X&lt;BR&gt;
      66X&amp;nbsp;ALT&lt;BR&gt;
      66P&amp;nbsp;ALT&lt;BR&gt;
      66W&amp;nbsp;ALT&lt;BR&gt;
      66P&lt;BR&gt;
      66W&lt;BR&gt;
      66X&lt;BR&gt;
      67P&lt;BR&gt;
      67W&lt;BR&gt;
      67X&lt;BR&gt;
      67Y&lt;BR&gt;
      67Z&lt;BR&gt;
      68P&lt;BR&gt;
      68W&lt;BR&gt;
      68X&lt;BR&gt;
      67Y&amp;nbsp;ALT&lt;BR&gt;
      67Z&amp;nbsp;ALT&lt;BR&gt;&lt;/FONT&gt;
    &lt;/TD&gt;
    &lt;TD BGCOLOR="#cccccc" ALIGN=CENTER&gt;&lt;FONT FACE=ARIAL SIZE=3&gt;
      5050&lt;BR&gt;
      5091&lt;BR&gt;
      5080&lt;BR&gt;
      5087&lt;BR&gt;
      -&lt;BR&gt;
      -&lt;BR&gt;
      -&lt;BR&gt;
      -&lt;BR&gt;
      -&lt;BR&gt;
      -&lt;BR&gt;
      -&lt;BR&gt;
      T63YB&lt;BR&gt;
      T63XB&lt;BR&gt;
      -&lt;BR&gt;
      -&lt;BR&gt;
      -&lt;BR&gt;
      5887&lt;BR&gt;
      5891&lt;BR&gt;
      5880&lt;BR&gt;
      -&lt;BR&gt;
      -&lt;BR&gt;
      -&lt;BR&gt;
      T93Z&lt;BR&gt;
      T93YA&lt;BR&gt;
      T93XA&lt;BR&gt;
      T93YB&lt;BR&gt;
      T93XB&lt;BR&gt;
      -&lt;BR&gt;
      -&lt;BR&gt;
      -&lt;BR&gt;
      -&lt;BR&gt;
      -&lt;BR&gt;&lt;/FONT&gt;
    &lt;/TD&gt;
    &lt;TD BGCOLOR="#cccccc" ALIGN=CENTER&gt;&lt;FONT FACE=ARIAL SIZE=3&gt;
      -&lt;BR&gt;
      -&lt;BR&gt;
      -&lt;BR&gt;
      -&lt;BR&gt;
      -&lt;BR&gt;
      -&lt;BR&gt;
      -&lt;BR&gt;
      -&lt;BR&gt;
      -&lt;BR&gt;
      -&lt;BR&gt;
      8026EKP&lt;BR&gt;
      8026EKW&lt;BR&gt;
      8026EKM&lt;BR&gt;
      8026EKP&lt;BR&gt;
      8026EKB&lt;BR&gt;
      8026EKM&lt;BR&gt;
      1309X&lt;BR&gt;
      1309P&lt;BR&gt;
      1309W&lt;BR&gt;
      8024EKP&lt;BR&gt;
      8024EKW&lt;BR&gt;
      8024EKN&lt;BR&gt;
      RJ-9P/CT9P&lt;BR&gt;
      RJ-9W&lt;BR&gt;
      RJ-9X&lt;BR&gt;
      -&lt;BR&gt;
      -&lt;BR&gt;
      -&lt;BR&gt;
      -&lt;BR&gt;
      -&lt;BR&gt;
      -&lt;BR&gt;
      -&lt;BR&gt;&lt;/FONT&gt;
    &lt;/TD&gt;
    &lt;TD BGCOLOR="#cccccc" ALIGN=CENTER&gt;&lt;FONT FACE=ARIAL SIZE=3&gt;
      -&lt;BR&gt;
      -&lt;BR&gt;
      -&lt;BR&gt;
      -&lt;BR&gt;
      -&lt;BR&gt;
      -&lt;BR&gt;
      -&lt;BR&gt;
      -&lt;BR&gt;
      -&lt;BR&gt;
      -&lt;BR&gt;
      3103P&lt;BR&gt;
      3103Y&lt;BR&gt;
      3103Z&lt;BR&gt;
      3103P&lt;BR&gt;
      3103Y&lt;BR&gt;
      3103Z&lt;BR&gt;
      -&lt;BR&gt;
      -&lt;BR&gt;
      -&lt;BR&gt;
      -&lt;BR&gt;
      -&lt;BR&gt;
      -&lt;BR&gt;
      3105P/3106P&lt;BR&gt;
      3105W/3106W&lt;BR&gt;
      3105X/3106X&lt;BR&gt;
      3105Y/3106Y&lt;BR&gt;
      3105Z/3105Z&lt;BR&gt;
      3102P&lt;BR&gt;
      3102W&lt;BR&gt;
      3102X&lt;BR&gt;
      3102Y&lt;BR&gt;
      3102Z&lt;BR&gt;&lt;/FONT&gt;
    &lt;/TD&gt;
    &lt;TD BGCOLOR="#cccccc" ALIGN=CENTER&gt;&lt;FONT FACE=ARIAL SIZE=3&gt;
      -&lt;BR&gt;
      -&lt;BR&gt;
      -&lt;BR&gt;
      -&lt;BR&gt;
      -&lt;BR&gt;
      -&lt;BR&gt;
      -&lt;BR&gt;
      -&lt;BR&gt;
      -&lt;BR&gt;
      -&lt;BR&gt;
      -&lt;BR&gt;
      -&lt;BR&gt;
      -&lt;BR&gt;
      -&lt;BR&gt;
      -&lt;BR&gt;
      -&lt;BR&gt;
      -&lt;BR&gt;
      -&lt;BR&gt;
      -&lt;BR&gt;
      -&lt;BR&gt;
      -&lt;BR&gt;
      -&lt;BR&gt;
      EVMCBG&lt;BR&gt;
      EVMCCG&lt;BR&gt;
      -&lt;BR&gt;
      -&lt;BR&gt;
      -&lt;BR&gt;
      -&lt;BR&gt;
      -&lt;BR&gt;
      -&lt;BR&gt;
      -&lt;BR&gt;
      -&lt;BR&gt;&lt;/FONT&gt;
    &lt;/TD&gt;
    &lt;TD BGCOLOR="#cccccc" ALIGN=CENTER&gt;&lt;FONT FACE=ARIAL SIZE=3&gt;
      55-1-X&lt;BR&gt;
      55-4-X&lt;BR&gt;
      55-3-X&lt;BR&gt;
      55-2-X&lt;BR&gt;
      -&lt;BR&gt;
      -&lt;BR&gt;
      -&lt;BR&gt;
      -&lt;BR&gt;
      -&lt;BR&gt;
      -&lt;BR&gt;
      -&lt;BR&gt;
      -&lt;BR&gt;
      -&lt;BR&gt;
      -&lt;BR&gt;
      -&lt;BR&gt;
      -&lt;BR&gt;
      50-2-X&lt;BR&gt;
      50-4-X&lt;BR&gt;
      50-3-X&lt;BR&gt;
      -&lt;BR&gt;
      -&lt;BR&gt;
      -&lt;BR&gt;
      64P&lt;BR&gt;
      64W&lt;BR&gt;
      64X&lt;BR&gt;
      64Y&lt;BR&gt;
      64Z&lt;BR&gt;
      -&lt;BR&gt;
      -&lt;BR&gt;
      -&lt;BR&gt;
      -&lt;BR&gt;
      -&lt;BR&gt;&lt;/FONT&gt;
    &lt;/TD&gt;
    &lt;TD BGCOLOR="#cccccc" ALIGN=CENTER&gt;&lt;FONT FACE=ARIAL SIZE=3&gt;
      RT/RTR22&lt;BR&gt;
      RT/RTR22&lt;BR&gt;
      RT/RTR22&lt;BR&gt;
      RT/RTR22&lt;BR&gt;
      RJ/RJR22&lt;BR&gt;
      RJ/RJR22&lt;BR&gt;
      RJ/RJR22&lt;BR&gt;
      RT/RTR26&lt;BR&gt;
      RT/RTR26&lt;BR&gt;
      RT/RTR26&lt;BR&gt;
      RJ/RJR26&lt;BR&gt;
      RJ/RJR26&lt;BR&gt;
      RJ/RJR26&lt;BR&gt;
      RJ/RJR26&lt;BR&gt;
      RJ/RJR26&lt;BR&gt;
      RJ/RJR26&lt;BR&gt;
      RT/RTR24&lt;BR&gt;
      RT/RTR24&lt;BR&gt;
      RT/RTR24&lt;BR&gt;
      RJ/RJR24&lt;BR&gt;
      RJ/RJR24&lt;BR&gt;
      RJ/RJR24&lt;BR&gt;
      RJ/RJR24&lt;BR&gt;
      RJ/RJR24&lt;BR&gt;
      RJ/RJR24&lt;BR&gt;
      -&lt;BR&gt;
      -&lt;BR&gt;
      -&lt;BR&gt;
      -&lt;BR&gt;
      -&lt;BR&gt;
      -&lt;BR&gt;
      -&lt;BR&gt;&lt;/FONT&gt;
    &lt;/TD&gt;
  &lt;/TR&gt;
  &lt;TR&gt;
    &lt;TD COLSPAN=8&gt;&amp;nbsp;
    &lt;/TD&gt;
  &lt;/TR&gt;
  &lt;TR&gt;
    &lt;TD COLSPAN=8&gt;
      &lt;FONT SIZE=4 FACE=ARIAL&gt;&lt;B&gt;SINGLE TURN&lt;/B&gt;&lt;/FONT&gt;
    &lt;/TD&gt;
  &lt;/TR&gt;
  &lt;TR&gt;
    &lt;TD ALIGN=CENTER&gt;
      &lt;FONT SIZE=3 FACE=ARIAL&gt;&lt;B&gt;BOURN&lt;/B&gt;&lt;/FONT&gt;
    &lt;/TD&gt;
    &lt;TD ALIGN=CENTER&gt;
      &lt;FONT SIZE=3 FACE=ARIAL&gt;&lt;B&gt;BI&amp;nbsp;TECH&lt;/B&gt;&lt;/FONT&gt;
    &lt;/TD&gt;
    &lt;TD ALIGN=CENTER&gt;
      &lt;FONT SIZE=3 FACE=ARIAL&gt;&lt;B&gt;DALE-VISHAY&lt;/B&gt;&lt;/FONT&gt;
    &lt;/TD&gt;
    &lt;TD ALIGN=CENTER&gt;
      &lt;FONT SIZE=3 FACE=ARIAL&gt;&lt;B&gt;PHILIPS/MEPCO&lt;/B&gt;&lt;/FONT&gt;
    &lt;/TD&gt;
    &lt;TD ALIGN=CENTER&gt;
      &lt;FONT SIZE=3 FACE=ARIAL&gt;&lt;B&gt;MURATA&lt;/B&gt;&lt;/FONT&gt;
    &lt;/TD&gt;
    &lt;TD ALIGN=CENTER&gt;
      &lt;FONT SIZE=3 FACE=ARIAL&gt;&lt;B&gt;PANASONIC&lt;/B&gt;&lt;/FONT&gt;
    &lt;/TD&gt;
    &lt;TD ALIGN=CENTER&gt;
      &lt;FONT SIZE=3 FACE=ARIAL&gt;&lt;B&gt;SPECTROL&lt;/B&gt;&lt;/FONT&gt;
    &lt;/TD&gt;
    &lt;TD ALIGN=CENTER&gt;
      &lt;FONT SIZE=3 FACE=ARIAL&gt;&lt;B&gt;MILSPEC&lt;/B&gt;&lt;/FONT&gt;
    &lt;/TD&gt;
  &lt;/TR&gt;
  &lt;TR&gt;
    &lt;TD BGCOLOR="#cccccc" ALIGN=CENTER&gt;&lt;FONT FACE=ARIAL SIZE=3&gt;
      3323P&lt;BR&gt;
      3323S&lt;BR&gt;
      3323W&lt;BR&gt;
      3329H&lt;BR&gt;
      3329P&lt;BR&gt;
      3329W&lt;BR&gt;
      3339H&lt;BR&gt;
      3339P&lt;BR&gt;
      3339W&lt;BR&gt;
      3352E&lt;BR&gt;
      3352H&lt;BR&gt;
      3352K&lt;BR&gt;
      3352P&lt;BR&gt;
      3352T&lt;BR&gt;
      3352V&lt;BR&gt;
      3352W&lt;BR&gt;
      3362H&lt;BR&gt;
      3362M&lt;BR&gt;
      3362P&lt;BR&gt;
      3362R&lt;BR&gt;
      3362S&lt;BR&gt;
      3362U&lt;BR&gt;
      3362W&lt;BR&gt;
      3362X&lt;BR&gt;
      3386B&lt;BR&gt;
      3386C&lt;BR&gt;
      3386F&lt;BR&gt;
      3386H&lt;BR&gt;
      3386K&lt;BR&gt;
      3386M&lt;BR&gt;
      3386P&lt;BR&gt;
      3386S&lt;BR&gt;
      3386W&lt;BR&gt;
      3386X&lt;BR&gt;&lt;/FONT&gt;
    &lt;/TD&gt;
    &lt;TD BGCOLOR="#cccccc" ALIGN=CENTER&gt;&lt;FONT FACE=ARIAL SIZE=3&gt;
      25P&lt;BR&gt;
      25S&lt;BR&gt;
      25RX&lt;BR&gt;
      82P&lt;BR&gt;
      82M&lt;BR&gt;
      82PA&lt;BR&gt;
      -&lt;BR&gt;
      -&lt;BR&gt;
      -&lt;BR&gt;
      91E&lt;BR&gt;
      91X&lt;BR&gt;
      91T&lt;BR&gt;
      91B&lt;BR&gt;
      91A&lt;BR&gt;
      91V&lt;BR&gt;
      91W&lt;BR&gt;
      25W&lt;BR&gt;
      25V&lt;BR&gt;
      25P&lt;BR&gt;
      -&lt;BR&gt;
      25S&lt;BR&gt;
      25U&lt;BR&gt;
      25RX&lt;BR&gt;
      25X&lt;BR&gt;
      72XW&lt;BR&gt;
      72XL&lt;BR&gt;
      72PM&lt;BR&gt;
      72RX&lt;BR&gt;
      -&lt;BR&gt;
      72PX&lt;BR&gt;
      72P&lt;BR&gt;
      72RXW&lt;BR&gt;
      72RXL&lt;BR&gt;
      72X&lt;BR&gt;&lt;/FONT&gt;
    &lt;/TD&gt;
    &lt;TD BGCOLOR="#cccccc" ALIGN=CENTER&gt;&lt;FONT FACE=ARIAL SIZE=3&gt;
      -&lt;BR&gt;
      -&lt;BR&gt;
      -&lt;BR&gt;
      T7YB&lt;BR&gt;
      T7YA&lt;BR&gt;
      -&lt;BR&gt;
      -&lt;BR&gt;
      -&lt;BR&gt;
      -&lt;BR&gt;
      -&lt;BR&gt;
      -&lt;BR&gt;
      -&lt;BR&gt;
      -&lt;BR&gt;
      -&lt;BR&gt;
      -&lt;BR&gt;
      -&lt;BR&gt;
      -&lt;BR&gt;
      TXD&lt;BR&gt;
      TYA&lt;BR&gt;
      TYP&lt;BR&gt;
      -&lt;BR&gt;
      TYD&lt;BR&gt;
      TX&lt;BR&gt;
      -&lt;BR&gt;
      150SX&lt;BR&gt;
      100SX&lt;BR&gt;
      102T&lt;BR&gt;
      101S&lt;BR&gt;
      190T&lt;BR&gt;
      150TX&lt;BR&gt;
      101&lt;BR&gt;
      -&lt;BR&gt;
      -&lt;BR&gt;
      101SX&lt;BR&gt;&lt;/FONT&gt;
    &lt;/TD&gt;
    &lt;TD BGCOLOR="#cccccc" ALIGN=CENTER&gt;&lt;FONT FACE=ARIAL SIZE=3&gt;
      ET6P&lt;BR&gt;
      ET6S&lt;BR&gt;
      ET6X&lt;BR&gt;
      RJ-6W/8014EMW&lt;BR&gt;
      RJ-6P/8014EMP&lt;BR&gt;
      RJ-6X/8014EMX&lt;BR&gt;
      TM7W&lt;BR&gt;
      TM7P&lt;BR&gt;
      TM7X&lt;BR&gt;
      -&lt;BR&gt;
      8017SMS&lt;BR&gt;
      -&lt;BR&gt;
      8017SMB&lt;BR&gt;
      8017SMA&lt;BR&gt;
      -&lt;BR&gt;
      -&lt;BR&gt;
      CT-6W&lt;BR&gt;
      CT-6H&lt;BR&gt;
      CT-6P&lt;BR&gt;
      CT-6R&lt;BR&gt;
      -&lt;BR&gt;
      CT-6V&lt;BR&gt;
      CT-6X&lt;BR&gt;
      -&lt;BR&gt;
      -&lt;BR&gt;
      8038EKV&lt;BR&gt;
      -&lt;BR&gt;
      8038EKX&lt;BR&gt;
      -&lt;BR&gt;
      -&lt;BR&gt;
      8038EKP&lt;BR&gt;
      8038EKZ&lt;BR&gt;
      8038EKW&lt;BR&gt;
      -&lt;BR&gt;&lt;/FONT&gt;
    &lt;/TD&gt;
    &lt;TD BGCOLOR="#cccccc" ALIGN=CENTER&gt;&lt;FONT FACE=ARIAL SIZE=3&gt;
      -&lt;BR&gt;
      -&lt;BR&gt;
      -&lt;BR&gt;
      3321H&lt;BR&gt;
      3321P&lt;BR&gt;
      3321N&lt;BR&gt;
      1102H&lt;BR&gt;
      1102P&lt;BR&gt;
      1102T&lt;BR&gt;
      RVA0911V304A&lt;BR&gt;
      -&lt;BR&gt;
      RVA0911H413A&lt;BR&gt;
      RVG0707V100A&lt;BR&gt;
      RVA0607V(H)306A&lt;BR&gt;
      RVA1214H213A&lt;BR&gt;
      -&lt;BR&gt;
      -&lt;BR&gt;
      -&lt;BR&gt;
      -&lt;BR&gt;
      -&lt;BR&gt;
      -&lt;BR&gt;
      -&lt;BR&gt;
      -&lt;BR&gt;
      -&lt;BR&gt;
      3104B&lt;BR&gt;
      3104C&lt;BR&gt;
      3104F&lt;BR&gt;
      3104H&lt;BR&gt;
      -&lt;BR&gt;
      3104M&lt;BR&gt;
      3104P&lt;BR&gt;
      3104S&lt;BR&gt;
      3104W&lt;BR&gt;
      3104X&lt;BR&gt;&lt;/FONT&gt;
    &lt;/TD&gt;
    &lt;TD BGCOLOR="#cccccc" ALIGN=CENTER&gt;&lt;FONT FACE=ARIAL SIZE=3&gt;
      EVMQ0G&lt;BR&gt;
      EVMQIG&lt;BR&gt;
      EVMQ3G&lt;BR&gt;
      EVMS0G&lt;BR&gt;
      EVMQ0G&lt;BR&gt;
      EVMG0G&lt;BR&gt;
      -&lt;BR&gt;
      -&lt;BR&gt;
      -&lt;BR&gt;
      EVMK4GA00B&lt;BR&gt;
      EVM30GA00B&lt;BR&gt;
      EVMK0GA00B&lt;BR&gt;
      EVM38GA00B&lt;BR&gt;
      EVMB6&lt;BR&gt;
      EVLQ0&lt;BR&gt;
      -&lt;BR&gt;
      EVMMSG&lt;BR&gt;
      EVMMBG&lt;BR&gt;
      EVMMAG&lt;BR&gt;
      -&lt;BR&gt;
      -&lt;BR&gt;
      EVMMCS&lt;BR&gt;
      -&lt;BR&gt;
      -&lt;BR&gt;
      -&lt;BR&gt;
      -&lt;BR&gt;
      -&lt;BR&gt;
      EVMM1&lt;BR&gt;
      -&lt;BR&gt;
      -&lt;BR&gt;
      EVMM0&lt;BR&gt;
      -&lt;BR&gt;
      -&lt;BR&gt;
      EVMM3&lt;BR&gt;&lt;/FONT&gt;
    &lt;/TD&gt;
    &lt;TD BGCOLOR="#cccccc" ALIGN=CENTER&gt;&lt;FONT FACE=ARIAL SIZE=3&gt;
      -&lt;BR&gt;
      -&lt;BR&gt;
      -&lt;BR&gt;
      62-3-1&lt;BR&gt;
      62-1-2&lt;BR&gt;
      -&lt;BR&gt;
      -&lt;BR&gt;
      -&lt;BR&gt;
      -&lt;BR&gt;
      -&lt;BR&gt;
      -&lt;BR&gt;
      -&lt;BR&gt;
      -&lt;BR&gt;
      -&lt;BR&gt;
      -&lt;BR&gt;
      -&lt;BR&gt;
      67R&lt;BR&gt;
      -&lt;BR&gt;
      67P&lt;BR&gt;
      -&lt;BR&gt;
      -&lt;BR&gt;
      -&lt;BR&gt;
      -&lt;BR&gt;
      67X&lt;BR&gt;
      63V&lt;BR&gt;
      63S&lt;BR&gt;
      63M&lt;BR&gt;
      -&lt;BR&gt;
      -&lt;BR&gt;
      63H&lt;BR&gt;
      63P&lt;BR&gt;
      -&lt;BR&gt;
      -&lt;BR&gt;
      63X&lt;BR&gt;&lt;/FONT&gt;
    &lt;/TD&gt;
    &lt;TD BGCOLOR="#cccccc" ALIGN=CENTER&gt;&lt;FONT FACE=ARIAL SIZE=3&gt;
      -&lt;BR&gt;
      -&lt;BR&gt;
      -&lt;BR&gt;
      RJ/RJR50&lt;BR&gt;
      RJ/RJR50&lt;BR&gt;
      RJ/RJR50&lt;BR&gt;
      -&lt;BR&gt;
      -&lt;BR&gt;
      -&lt;BR&gt;
      -&lt;BR&gt;
      -&lt;BR&gt;
      -&lt;BR&gt;
      -&lt;BR&gt;
      -&lt;BR&gt;
      -&lt;BR&gt;
      -&lt;BR&gt;
      -&lt;BR&gt;
      -&lt;BR&gt;
      -&lt;BR&gt;
      -&lt;BR&gt;
      -&lt;BR&gt;
      -&lt;BR&gt;
      -&lt;BR&gt;
      -&lt;BR&gt;
      -&lt;BR&gt;
      -&lt;BR&gt;
      -&lt;BR&gt;
      -&lt;BR&gt;
      -&lt;BR&gt;
      -&lt;BR&gt;
      -&lt;BR&gt;
      -&lt;BR&gt;
      -&lt;BR&gt;
      -&lt;BR&gt;&lt;/FONT&gt;
    &lt;/TD&gt;
  &lt;/TR&gt;
&lt;/TABLE&gt;
&lt;P&gt;&amp;nbsp;&lt;P&gt;
&lt;TABLE BORDER=0 CELLSPACING=1 CELLPADDING=3&gt;
  &lt;TR&gt;
    &lt;TD COLSPAN=7&gt;
      &lt;FONT color="#0000FF" SIZE=4 FACE=ARIAL&gt;&lt;B&gt;SMD TRIM-POT CROSS REFERENCE&lt;/B&gt;&lt;/FONT&gt;
      &lt;P&gt;
      &lt;FONT SIZE=4 FACE=ARIAL&gt;&lt;B&gt;MULTI-TURN&lt;/B&gt;&lt;/FONT&gt;
    &lt;/TD&gt;
  &lt;/TR&gt;
  &lt;TR&gt;
    &lt;TD&gt;
      &lt;FONT SIZE=3 FACE=ARIAL&gt;&lt;B&gt;BOURNS&lt;/B&gt;&lt;/FONT&gt;
    &lt;/TD&gt;
    &lt;TD&gt;
      &lt;FONT SIZE=3 FACE=ARIAL&gt;&lt;B&gt;BI&amp;nbsp;TECH&lt;/B&gt;&lt;/FONT&gt;
    &lt;/TD&gt;
    &lt;TD&gt;
      &lt;FONT SIZE=3 FACE=ARIAL&gt;&lt;B&gt;DALE-VISHAY&lt;/B&gt;&lt;/FONT&gt;
    &lt;/TD&gt;
    &lt;TD&gt;
      &lt;FONT SIZE=3 FACE=ARIAL&gt;&lt;B&gt;PHILIPS/MEPCO&lt;/B&gt;&lt;/FONT&gt;
    &lt;/TD&gt;
    &lt;TD&gt;
      &lt;FONT SIZE=3 FACE=ARIAL&gt;&lt;B&gt;PANASONIC&lt;/B&gt;&lt;/FONT&gt;
    &lt;/TD&gt;
    &lt;TD&gt;
      &lt;FONT SIZE=3 FACE=ARIAL&gt;&lt;B&gt;TOCOS&lt;/B&gt;&lt;/FONT&gt;
    &lt;/TD&gt;
    &lt;TD&gt;
      &lt;FONT SIZE=3 FACE=ARIAL&gt;&lt;B&gt;AUX/KYOCERA&lt;/B&gt;&lt;/FONT&gt;
    &lt;/TD&gt;
  &lt;/TR&gt;
  &lt;TR&gt;
    &lt;TD BGCOLOR="#cccccc" ALIGN=CENTER&gt;&lt;FONT FACE=ARIAL SIZE=3&gt;
      3224G&lt;BR&gt;
      3224J&lt;BR&gt;
      3224W&lt;BR&gt;
      3269P&lt;BR&gt;
      3269W&lt;BR&gt;
      3269X&lt;BR&gt;&lt;/FONT&gt;
    &lt;/TD&gt;
    &lt;TD BGCOLOR="#cccccc" ALIGN=CENTER&gt;&lt;FONT FACE=ARIAL SIZE=3&gt;
      44G&lt;BR&gt;
      44J&lt;BR&gt;
      44W&lt;BR&gt;
      84P&lt;BR&gt;
      84W&lt;BR&gt;
      84X&lt;BR&gt;&lt;/FONT&gt;
    &lt;/TD&gt;
    &lt;TD BGCOLOR="#cccccc" ALIGN=CENTER&gt;&lt;FONT FACE=ARIAL SIZE=3&gt;
      -&lt;BR&gt;
      -&lt;BR&gt;
      -&lt;BR&gt;
      ST63Z&lt;BR&gt;
      ST63Y&lt;BR&gt;
      -&lt;BR&gt;&lt;/FONT&gt;
    &lt;/TD&gt;
    &lt;TD BGCOLOR="#cccccc" ALIGN=CENTER&gt;&lt;FONT FACE=ARIAL SIZE=3&gt;
      -&lt;BR&gt;
      -&lt;BR&gt;
      -&lt;BR&gt;
      ST5P&lt;BR&gt;
      ST5W&lt;BR&gt;
      ST5X&lt;BR&gt;&lt;/FONT&gt;
    &lt;/TD&gt;
    &lt;TD BGCOLOR="#cccccc" ALIGN=CENTER&gt;&lt;FONT FACE=ARIAL SIZE=3&gt;
      -&lt;BR&gt;
      -&lt;BR&gt;
      -&lt;BR&gt;
      -&lt;BR&gt;
      -&lt;BR&gt;
      -&lt;BR&gt;&lt;/FONT&gt;
    &lt;/TD&gt;
    &lt;TD BGCOLOR="#cccccc" ALIGN=CENTER&gt;&lt;FONT FACE=ARIAL SIZE=3&gt;
      -&lt;BR&gt;
      -&lt;BR&gt;
      -&lt;BR&gt;
      -&lt;BR&gt;
      -&lt;BR&gt;
      -&lt;BR&gt;&lt;/FONT&gt;
    &lt;/TD&gt;
    &lt;TD BGCOLOR="#cccccc" ALIGN=CENTER&gt;&lt;FONT FACE=ARIAL SIZE=3&gt;
      -&lt;BR&gt;
      -&lt;BR&gt;
      -&lt;BR&gt;
      -&lt;BR&gt;
      -&lt;BR&gt;
      -&lt;BR&gt;&lt;/FONT&gt;
    &lt;/TD&gt;
  &lt;/TR&gt;
  &lt;TR&gt;
    &lt;TD COLSPAN=7&gt;&amp;nbsp;
    &lt;/TD&gt;
  &lt;/TR&gt;
  &lt;TR&gt;
    &lt;TD COLSPAN=7&gt;
      &lt;FONT SIZE=4 FACE=ARIAL&gt;&lt;B&gt;SINGLE TURN&lt;/B&gt;&lt;/FONT&gt;
    &lt;/TD&gt;
  &lt;/TR&gt;
  &lt;TR&gt;
    &lt;TD&gt;
      &lt;FONT SIZE=3 FACE=ARIAL&gt;&lt;B&gt;BOURNS&lt;/B&gt;&lt;/FONT&gt;
    &lt;/TD&gt;
    &lt;TD&gt;
      &lt;FONT SIZE=3 FACE=ARIAL&gt;&lt;B&gt;BI&amp;nbsp;TECH&lt;/B&gt;&lt;/FONT&gt;
    &lt;/TD&gt;
    &lt;TD&gt;
      &lt;FONT SIZE=3 FACE=ARIAL&gt;&lt;B&gt;DALE-VISHAY&lt;/B&gt;&lt;/FONT&gt;
    &lt;/TD&gt;
    &lt;TD&gt;
      &lt;FONT SIZE=3 FACE=ARIAL&gt;&lt;B&gt;PHILIPS/MEPCO&lt;/B&gt;&lt;/FONT&gt;
    &lt;/TD&gt;
    &lt;TD&gt;
      &lt;FONT SIZE=3 FACE=ARIAL&gt;&lt;B&gt;PANASONIC&lt;/B&gt;&lt;/FONT&gt;
    &lt;/TD&gt;
    &lt;TD&gt;
      &lt;FONT SIZE=3 FACE=ARIAL&gt;&lt;B&gt;TOCOS&lt;/B&gt;&lt;/FONT&gt;
    &lt;/TD&gt;
    &lt;TD&gt;
      &lt;FONT SIZE=3 FACE=ARIAL&gt;&lt;B&gt;AUX/KYOCERA&lt;/B&gt;&lt;/FONT&gt;
    &lt;/TD&gt;
  &lt;/TR&gt;
  &lt;TR&gt;
    &lt;TD BGCOLOR="#cccccc" ALIGN=CENTER&gt;&lt;FONT FACE=ARIAL SIZE=3&gt;
      3314G&lt;BR&gt;
      3314J&lt;BR&gt;
      3364A/B&lt;BR&gt;
      3364C/D&lt;BR&gt;
      3364W/X&lt;BR&gt;
      3313G&lt;BR&gt;
      3313J&lt;BR&gt;&lt;/FONT&gt;
    &lt;/TD&gt;
    &lt;TD BGCOLOR="#cccccc" ALIGN=CENTER&gt;&lt;FONT FACE=ARIAL SIZE=3&gt;
      23B&lt;BR&gt;
      23A&lt;BR&gt;
      21X&lt;BR&gt;
      21W&lt;BR&gt;
      -&lt;BR&gt;
      22B&lt;BR&gt;
      22A&lt;BR&gt;&lt;/FONT&gt;
    &lt;/TD&gt;
    &lt;TD BGCOLOR="#cccccc" ALIGN=CENTER&gt;&lt;FONT FACE=ARIAL SIZE=3&gt;
      ST5YL/ST53YL&lt;BR&gt;
      ST5YJ/5T53YJ&lt;BR&gt;
      ST-23A&lt;BR&gt;
      ST-22B&lt;BR&gt;
      ST-22&lt;BR&gt;
      -&lt;BR&gt;
      -&lt;BR&gt;&lt;/FONT&gt;
    &lt;/TD&gt;
    &lt;TD BGCOLOR="#cccccc" ALIGN=CENTER&gt;&lt;FONT FACE=ARIAL SIZE=3&gt;
      ST-4B&lt;BR&gt;
      ST-4A&lt;BR&gt;
      -&lt;BR&gt;
      -&lt;BR&gt;
      -&lt;BR&gt;
      ST-3B&lt;BR&gt;
      ST-3A&lt;BR&gt;&lt;/FONT&gt;
    &lt;/TD&gt;
    &lt;TD BGCOLOR="#cccccc" ALIGN=CENTER&gt;&lt;FONT FACE=ARIAL SIZE=3&gt;
      -&lt;BR&gt;
      EVM-6YS&lt;BR&gt;
      EVM-1E&lt;BR&gt;
      EVM-1G&lt;BR&gt;
      EVM-1D&lt;BR&gt;
      -&lt;BR&gt;
      -&lt;BR&gt;&lt;/FONT&gt;
    &lt;/TD&gt;
    &lt;TD BGCOLOR="#cccccc" ALIGN=CENTER&gt;&lt;FONT FACE=ARIAL SIZE=3&gt;
      G4B&lt;BR&gt;
      G4A&lt;BR&gt;
      TR04-3S1&lt;BR&gt;
      TRG04-2S1&lt;BR&gt;
      -&lt;BR&gt;
      -&lt;BR&gt;
      -&lt;BR&gt;&lt;/FONT&gt;
    &lt;/TD&gt;
    &lt;TD BGCOLOR="#cccccc" ALIGN=CENTER&gt;&lt;FONT FACE=ARIAL SIZE=3&gt;
      -&lt;BR&gt;
      -&lt;BR&gt;
      DVR-43A&lt;BR&gt;
      CVR-42C&lt;BR&gt;
      CVR-42A/C&lt;BR&gt;
      -&lt;BR&gt;
      -&lt;BR&gt;&lt;/FONT&gt;
    &lt;/TD&gt;
  &lt;/TR&gt;
&lt;/TABLE&gt;
&lt;P&gt;
&lt;FONT SIZE=4 FACE=ARIAL&gt;&lt;B&gt;ALT =&amp;nbsp;ALTERNATE&lt;/B&gt;&lt;/FONT&gt;
&lt;P&gt;

&amp;nbsp;
&lt;P&gt;
&lt;/td&gt;
&lt;/tr&gt;
&lt;/table&gt;</description>
<packages>
<package name="0207/10">
<description>&lt;b&gt;RESISTOR&lt;/b&gt;&lt;p&gt;
type 0207, grid 10 mm</description>
<wire x1="5.08" y1="0" x2="4.064" y2="0" width="0.6096" layer="51"/>
<wire x1="-5.08" y1="0" x2="-4.064" y2="0" width="0.6096" layer="51"/>
<wire x1="-3.175" y1="0.889" x2="-2.921" y2="1.143" width="0.1524" layer="21" curve="-90"/>
<wire x1="-3.175" y1="-0.889" x2="-2.921" y2="-1.143" width="0.1524" layer="21" curve="90"/>
<wire x1="2.921" y1="-1.143" x2="3.175" y2="-0.889" width="0.1524" layer="21" curve="90"/>
<wire x1="2.921" y1="1.143" x2="3.175" y2="0.889" width="0.1524" layer="21" curve="-90"/>
<wire x1="-3.175" y1="-0.889" x2="-3.175" y2="0.889" width="0.1524" layer="21"/>
<wire x1="-2.921" y1="1.143" x2="-2.54" y2="1.143" width="0.1524" layer="21"/>
<wire x1="-2.413" y1="1.016" x2="-2.54" y2="1.143" width="0.1524" layer="21"/>
<wire x1="-2.921" y1="-1.143" x2="-2.54" y2="-1.143" width="0.1524" layer="21"/>
<wire x1="-2.413" y1="-1.016" x2="-2.54" y2="-1.143" width="0.1524" layer="21"/>
<wire x1="2.413" y1="1.016" x2="2.54" y2="1.143" width="0.1524" layer="21"/>
<wire x1="2.413" y1="1.016" x2="-2.413" y2="1.016" width="0.1524" layer="21"/>
<wire x1="2.413" y1="-1.016" x2="2.54" y2="-1.143" width="0.1524" layer="21"/>
<wire x1="2.413" y1="-1.016" x2="-2.413" y2="-1.016" width="0.1524" layer="21"/>
<wire x1="2.921" y1="1.143" x2="2.54" y2="1.143" width="0.1524" layer="21"/>
<wire x1="2.921" y1="-1.143" x2="2.54" y2="-1.143" width="0.1524" layer="21"/>
<wire x1="3.175" y1="-0.889" x2="3.175" y2="0.889" width="0.1524" layer="21"/>
<pad name="1" x="-5.08" y="0" drill="0.8128" shape="octagon"/>
<pad name="2" x="5.08" y="0" drill="0.8128" shape="octagon"/>
<text x="-3.048" y="1.524" size="1.27" layer="25" ratio="10">&gt;NAME</text>
<text x="-2.2606" y="-0.635" size="1.27" layer="27" ratio="10">&gt;VALUE</text>
<rectangle x1="3.175" y1="-0.3048" x2="4.0386" y2="0.3048" layer="21"/>
<rectangle x1="-4.0386" y1="-0.3048" x2="-3.175" y2="0.3048" layer="21"/>
</package>
<package name="0309/12">
<description>&lt;b&gt;RESISTOR&lt;/b&gt;&lt;p&gt;
type 0309, grid 12.5 mm</description>
<wire x1="6.35" y1="0" x2="5.08" y2="0" width="0.6096" layer="51"/>
<wire x1="-6.35" y1="0" x2="-5.08" y2="0" width="0.6096" layer="51"/>
<wire x1="-4.318" y1="1.27" x2="-4.064" y2="1.524" width="0.1524" layer="21" curve="-90"/>
<wire x1="-4.318" y1="-1.27" x2="-4.064" y2="-1.524" width="0.1524" layer="21" curve="90"/>
<wire x1="4.064" y1="-1.524" x2="4.318" y2="-1.27" width="0.1524" layer="21" curve="90"/>
<wire x1="4.064" y1="1.524" x2="4.318" y2="1.27" width="0.1524" layer="21" curve="-90"/>
<wire x1="-4.318" y1="-1.27" x2="-4.318" y2="1.27" width="0.1524" layer="21"/>
<wire x1="-4.064" y1="1.524" x2="-3.429" y2="1.524" width="0.1524" layer="21"/>
<wire x1="-3.302" y1="1.397" x2="-3.429" y2="1.524" width="0.1524" layer="21"/>
<wire x1="-4.064" y1="-1.524" x2="-3.429" y2="-1.524" width="0.1524" layer="21"/>
<wire x1="-3.302" y1="-1.397" x2="-3.429" y2="-1.524" width="0.1524" layer="21"/>
<wire x1="3.302" y1="1.397" x2="3.429" y2="1.524" width="0.1524" layer="21"/>
<wire x1="3.302" y1="1.397" x2="-3.302" y2="1.397" width="0.1524" layer="21"/>
<wire x1="3.302" y1="-1.397" x2="3.429" y2="-1.524" width="0.1524" layer="21"/>
<wire x1="3.302" y1="-1.397" x2="-3.302" y2="-1.397" width="0.1524" layer="21"/>
<wire x1="4.064" y1="1.524" x2="3.429" y2="1.524" width="0.1524" layer="21"/>
<wire x1="4.064" y1="-1.524" x2="3.429" y2="-1.524" width="0.1524" layer="21"/>
<wire x1="4.318" y1="-1.27" x2="4.318" y2="1.27" width="0.1524" layer="21"/>
<pad name="1" x="-6.35" y="0" drill="0.8128" shape="octagon"/>
<pad name="2" x="6.35" y="0" drill="0.8128" shape="octagon"/>
<text x="-4.191" y="1.905" size="1.27" layer="25" ratio="10">&gt;NAME</text>
<text x="-3.175" y="-0.6858" size="1.27" layer="27" ratio="10">&gt;VALUE</text>
<rectangle x1="4.318" y1="-0.3048" x2="5.1816" y2="0.3048" layer="21"/>
<rectangle x1="-5.1816" y1="-0.3048" x2="-4.318" y2="0.3048" layer="21"/>
</package>
</packages>
</library>
<library name="con-ptr500">
<description>&lt;b&gt;PTR Connectors&lt;/b&gt;&lt;p&gt;
Aug. 2004 / PTR Meßtechnik:&lt;br&gt;
Die Bezeichnung der Serie AK505 wurde geändert.&lt;br&gt;
Es handelt sich hierbei um AK500 in horizontaler Ausführung.&lt;p&gt;
&lt;TABLE BORDER=0 CELLSPACING=1 CELLPADDING=2&gt;
  &lt;TR&gt;
    &lt;TD ALIGN=LEFT&gt;
      &lt;FONT SIZE=4 FACE=ARIAL&gt;&lt;B&gt;Alte Bezeichnung&lt;/B&gt;&lt;/FONT&gt;
    &lt;/TD&gt;
    &lt;TD ALIGN=LEFT&gt;
      &lt;FONT SIZE=4 FACE=ARIAL&gt;&lt;B&gt;Neue Bezeichnung&lt;/B&gt;&lt;/FONT&gt;
    &lt;/TD&gt;
  &lt;/TR&gt;
  &lt;TR&gt;
    &lt;TD ALIGN=LEFT&gt;
      &lt;B&gt;
      &lt;FONT SIZE=3 FACE=ARIAL color="#FF0000"&gt;AK505/2,grau&lt;/FONT&gt;
      &lt;/B&gt;
    &lt;/TD&gt;
    &lt;TD ALIGN=LEFT&gt;
      &lt;B&gt;
      &lt;FONT SIZE=3 FACE=ARIAL color="#0000FF"&gt;AK500/2-5.0-H-GRAU&lt;/FONT&gt;
      &lt;/B&gt;
    &lt;/TD&gt;
  &lt;/TR&gt;
  &lt;TR&gt;
    &lt;TD ALIGN=LEFT&gt;
      &lt;B&gt;
      &lt;FONT SIZE=3 FACE=ARIAL color="#FF0000"&gt;AK505/2DS,grau&lt;/FONT&gt;
      &lt;/B&gt;
    &lt;/TD&gt;
    &lt;TD ALIGN=LEFT&gt;
      &lt;B&gt;
      &lt;FONT SIZE=3 FACE=ARIAL color="#0000FF"&gt;AK500/2DS-5.0-H-GRAU&lt;/FONT&gt;
      &lt;/B&gt;
    &lt;/TD&gt;
  &lt;/TR&gt;
  &lt;TR&gt;
    &lt;TD ALIGN=LEFT&gt;
      &lt;B&gt;
      &lt;FONT SIZE=3 FACE=ARIAL color="#FF0000"&gt;AKZ505/2,grau&lt;/FONT&gt;
      &lt;/B&gt;
    &lt;/TD&gt;
    &lt;TD ALIGN=LEFT&gt;
      &lt;B&gt;
      &lt;FONT SIZE=3 FACE=ARIAL color="#0000FF"&gt;AKZ500/2-5.08-H-GRAU&lt;/FONT&gt;
      &lt;/B&gt;
    &lt;/TD&gt;
  &lt;/TABLE&gt;

&lt;author&gt;Created by librarian@cadsoft.de&lt;/author&gt;</description>
<packages>
<package name="AK500/2">
<description>&lt;b&gt;CONNECTOR&lt;/b&gt;</description>
<wire x1="-5.08" y1="-3.556" x2="-5.08" y2="-2.159" width="0.1524" layer="21"/>
<wire x1="5.08" y1="3.937" x2="-5.08" y2="3.937" width="0.1524" layer="21"/>
<wire x1="5.08" y1="3.937" x2="5.08" y2="2.159" width="0.1524" layer="21"/>
<wire x1="-5.08" y1="-3.556" x2="5.08" y2="-3.556" width="0.1524" layer="21"/>
<wire x1="-5.08" y1="3.048" x2="-5.588" y2="3.175" width="0.1524" layer="21"/>
<wire x1="-5.08" y1="3.048" x2="-5.08" y2="3.937" width="0.1524" layer="21"/>
<wire x1="-5.588" y1="3.175" x2="-5.588" y2="2.032" width="0.1524" layer="21"/>
<wire x1="-5.588" y1="2.032" x2="-5.08" y2="2.159" width="0.1524" layer="21"/>
<wire x1="-5.08" y1="2.159" x2="-5.08" y2="3.048" width="0.1524" layer="21"/>
<wire x1="-5.08" y1="2.159" x2="5.08" y2="2.159" width="0.1524" layer="21"/>
<wire x1="5.08" y1="2.159" x2="5.08" y2="-2.159" width="0.1524" layer="21"/>
<wire x1="-5.08" y1="-2.159" x2="5.08" y2="-2.159" width="0.1524" layer="21"/>
<wire x1="-5.08" y1="-2.159" x2="-5.08" y2="2.159" width="0.1524" layer="21"/>
<wire x1="5.08" y1="-2.159" x2="5.08" y2="-3.556" width="0.1524" layer="21"/>
<wire x1="1.4986" y1="-1.397" x2="3.9116" y2="1.016" width="0.1524" layer="51"/>
<wire x1="1.1176" y1="-1.016" x2="3.5306" y2="1.397" width="0.1524" layer="51"/>
<wire x1="-3.9116" y1="-1.016" x2="-1.4986" y2="1.397" width="0.1524" layer="51"/>
<wire x1="-3.5306" y1="-1.397" x2="-1.1176" y2="1.016" width="0.1524" layer="51"/>
<wire x1="1.4986" y1="-1.016" x2="3.5306" y2="1.016" width="0.6096" layer="51"/>
<wire x1="-3.5306" y1="-1.016" x2="-1.4986" y2="1.016" width="0.6096" layer="51"/>
<wire x1="1.1176" y1="-1.016" x2="1.4986" y2="-1.397" width="0.1524" layer="51"/>
<wire x1="3.5306" y1="1.397" x2="3.9116" y2="1.016" width="0.1524" layer="51"/>
<wire x1="-3.9116" y1="-1.016" x2="-3.5306" y2="-1.397" width="0.1524" layer="51"/>
<wire x1="-1.4986" y1="1.397" x2="-1.1176" y2="1.016" width="0.1524" layer="51"/>
<circle x="2.5146" y="3.048" radius="0.508" width="0.1524" layer="21"/>
<circle x="-2.5146" y="3.048" radius="0.508" width="0.1524" layer="21"/>
<circle x="2.5146" y="0" radius="1.778" width="0.1524" layer="51"/>
<circle x="-2.5146" y="0" radius="1.778" width="0.1524" layer="51"/>
<pad name="1" x="-2.5146" y="0" drill="1.3208" shape="long" rot="R90"/>
<pad name="2" x="2.5146" y="0" drill="1.3208" shape="long" rot="R90"/>
<text x="-5.08" y="4.445" size="1.778" layer="25" ratio="10">&gt;NAME</text>
<text x="-5.08" y="-5.715" size="1.778" layer="27" ratio="10">&gt;VALUE</text>
<text x="-4.445" y="2.54" size="0.9906" layer="21" ratio="12">1</text>
<text x="0.635" y="2.54" size="0.9906" layer="21" ratio="12">2</text>
<rectangle x1="-0.381" y1="-1.905" x2="0.381" y2="1.905" layer="21"/>
</package>
</packages>
</library>
</libraries>
<attributes>
</attributes>
<variantdefs>
</variantdefs>
<classes>
<class number="0" name="default" width="0" drill="0">
</class>
</classes>
<designrules name="default">
<description language="de">&lt;b&gt;EAGLE Design Rules&lt;/b&gt;
&lt;p&gt;
Die Standard-Design-Rules sind so gewählt, dass sie für 
die meisten Anwendungen passen. Sollte ihre Platine 
besondere Anforderungen haben, treffen Sie die erforderlichen
Einstellungen hier und speichern die Design Rules unter 
einem neuen Namen ab.</description>
<description language="en">&lt;b&gt;EAGLE Design Rules&lt;/b&gt;
&lt;p&gt;
The default Design Rules have been set to cover
a wide range of applications. Your particular design
may have different requirements, so please make the
necessary adjustments and save your customized
design rules under a new name.</description>
<param name="layerSetup" value="(1*16)"/>
<param name="mtCopper" value="0.035mm 0.035mm 0.035mm 0.035mm 0.035mm 0.035mm 0.035mm 0.035mm 0.035mm 0.035mm 0.035mm 0.035mm 0.035mm 0.035mm 0.035mm 0.035mm"/>
<param name="mtIsolate" value="1.5mm 0.15mm 0.2mm 0.15mm 0.2mm 0.15mm 0.2mm 0.15mm 0.2mm 0.15mm 0.2mm 0.15mm 0.2mm 0.15mm 0.2mm"/>
<param name="mdWireWire" value="8mil"/>
<param name="mdWirePad" value="8mil"/>
<param name="mdWireVia" value="8mil"/>
<param name="mdPadPad" value="8mil"/>
<param name="mdPadVia" value="8mil"/>
<param name="mdViaVia" value="8mil"/>
<param name="mdSmdPad" value="8mil"/>
<param name="mdSmdVia" value="8mil"/>
<param name="mdSmdSmd" value="8mil"/>
<param name="mdViaViaSameLayer" value="8mil"/>
<param name="mnLayersViaInSmd" value="2"/>
<param name="mdCopperDimension" value="40mil"/>
<param name="mdDrill" value="8mil"/>
<param name="mdSmdStop" value="0mil"/>
<param name="msWidth" value="10mil"/>
<param name="msDrill" value="24mil"/>
<param name="msMicroVia" value="9.99mm"/>
<param name="msBlindViaRatio" value="0.5"/>
<param name="rvPadTop" value="0.25"/>
<param name="rvPadInner" value="0.25"/>
<param name="rvPadBottom" value="0.25"/>
<param name="rvViaOuter" value="0.25"/>
<param name="rvViaInner" value="0.25"/>
<param name="rvMicroViaOuter" value="0.25"/>
<param name="rvMicroViaInner" value="0.25"/>
<param name="rlMinPadTop" value="10mil"/>
<param name="rlMaxPadTop" value="20mil"/>
<param name="rlMinPadInner" value="10mil"/>
<param name="rlMaxPadInner" value="20mil"/>
<param name="rlMinPadBottom" value="10mil"/>
<param name="rlMaxPadBottom" value="20mil"/>
<param name="rlMinViaOuter" value="8mil"/>
<param name="rlMaxViaOuter" value="20mil"/>
<param name="rlMinViaInner" value="8mil"/>
<param name="rlMaxViaInner" value="20mil"/>
<param name="rlMinMicroViaOuter" value="4mil"/>
<param name="rlMaxMicroViaOuter" value="20mil"/>
<param name="rlMinMicroViaInner" value="4mil"/>
<param name="rlMaxMicroViaInner" value="20mil"/>
<param name="psTop" value="-1"/>
<param name="psBottom" value="-1"/>
<param name="psFirst" value="-1"/>
<param name="psElongationLong" value="100"/>
<param name="psElongationOffset" value="100"/>
<param name="mvStopFrame" value="1"/>
<param name="mvCreamFrame" value="0"/>
<param name="mlMinStopFrame" value="4mil"/>
<param name="mlMaxStopFrame" value="4mil"/>
<param name="mlMinCreamFrame" value="0mil"/>
<param name="mlMaxCreamFrame" value="0mil"/>
<param name="mlViaStopLimit" value="0mil"/>
<param name="srRoundness" value="0"/>
<param name="srMinRoundness" value="0mil"/>
<param name="srMaxRoundness" value="0mil"/>
<param name="slThermalIsolate" value="10mil"/>
<param name="slThermalsForVias" value="0"/>
<param name="dpMaxLengthDifference" value="10mm"/>
<param name="dpGapFactor" value="2.5"/>
<param name="checkGrid" value="0"/>
<param name="checkAngle" value="0"/>
<param name="checkFont" value="1"/>
<param name="checkRestrict" value="1"/>
<param name="useDiameter" value="13"/>
<param name="maxErrors" value="50"/>
</designrules>
<autorouter>
<pass name="Default">
<param name="RoutingGrid" value="50mil"/>
<param name="AutoGrid" value="1"/>
<param name="Efforts" value="0"/>
<param name="TopRouterVariant" value="1"/>
<param name="tpViaShape" value="round"/>
<param name="PrefDir.1" value="a"/>
<param name="PrefDir.2" value="0"/>
<param name="PrefDir.3" value="0"/>
<param name="PrefDir.4" value="0"/>
<param name="PrefDir.5" value="0"/>
<param name="PrefDir.6" value="0"/>
<param name="PrefDir.7" value="0"/>
<param name="PrefDir.8" value="0"/>
<param name="PrefDir.9" value="0"/>
<param name="PrefDir.10" value="0"/>
<param name="PrefDir.11" value="0"/>
<param name="PrefDir.12" value="0"/>
<param name="PrefDir.13" value="0"/>
<param name="PrefDir.14" value="0"/>
<param name="PrefDir.15" value="0"/>
<param name="PrefDir.16" value="a"/>
<param name="cfVia" value="8"/>
<param name="cfNonPref" value="5"/>
<param name="cfChangeDir" value="2"/>
<param name="cfOrthStep" value="2"/>
<param name="cfDiagStep" value="3"/>
<param name="cfExtdStep" value="0"/>
<param name="cfBonusStep" value="1"/>
<param name="cfMalusStep" value="1"/>
<param name="cfPadImpact" value="4"/>
<param name="cfSmdImpact" value="4"/>
<param name="cfBusImpact" value="0"/>
<param name="cfHugging" value="3"/>
<param name="cfAvoid" value="4"/>
<param name="cfPolygon" value="10"/>
<param name="cfBase.1" value="0"/>
<param name="cfBase.2" value="1"/>
<param name="cfBase.3" value="1"/>
<param name="cfBase.4" value="1"/>
<param name="cfBase.5" value="1"/>
<param name="cfBase.6" value="1"/>
<param name="cfBase.7" value="1"/>
<param name="cfBase.8" value="1"/>
<param name="cfBase.9" value="1"/>
<param name="cfBase.10" value="1"/>
<param name="cfBase.11" value="1"/>
<param name="cfBase.12" value="1"/>
<param name="cfBase.13" value="1"/>
<param name="cfBase.14" value="1"/>
<param name="cfBase.15" value="1"/>
<param name="cfBase.16" value="0"/>
<param name="mnVias" value="20"/>
<param name="mnSegments" value="9999"/>
<param name="mnExtdSteps" value="9999"/>
<param name="mnRipupLevel" value="10"/>
<param name="mnRipupSteps" value="100"/>
<param name="mnRipupTotal" value="100"/>
</pass>
<pass name="Follow-me" refer="Default" active="yes">
</pass>
<pass name="Busses" refer="Default" active="yes">
<param name="cfNonPref" value="4"/>
<param name="cfBusImpact" value="4"/>
<param name="cfHugging" value="0"/>
<param name="mnVias" value="0"/>
</pass>
<pass name="Route" refer="Default" active="yes">
</pass>
<pass name="Optimize1" refer="Default" active="yes">
<param name="cfVia" value="99"/>
<param name="cfExtdStep" value="10"/>
<param name="cfHugging" value="1"/>
<param name="mnExtdSteps" value="1"/>
<param name="mnRipupLevel" value="0"/>
</pass>
<pass name="Optimize2" refer="Optimize1" active="yes">
<param name="cfNonPref" value="0"/>
<param name="cfChangeDir" value="6"/>
<param name="cfExtdStep" value="0"/>
<param name="cfBonusStep" value="2"/>
<param name="cfMalusStep" value="2"/>
<param name="cfPadImpact" value="2"/>
<param name="cfSmdImpact" value="2"/>
<param name="cfHugging" value="0"/>
</pass>
<pass name="Optimize3" refer="Optimize2" active="yes">
<param name="cfChangeDir" value="8"/>
<param name="cfPadImpact" value="0"/>
<param name="cfSmdImpact" value="0"/>
</pass>
<pass name="Optimize4" refer="Optimize3" active="yes">
<param name="cfChangeDir" value="25"/>
</pass>
</autorouter>
<elements>
<element name="C1" library="capacitor-wima" package="C27.5B13" value="" x="16.51" y="49.53"/>
<element name="C2" library="capacitor-wima" package="C27.5B13" value="" x="16.51" y="35.56"/>
<element name="C3" library="capacitor-wima" package="C27.5B13" value="" x="16.51" y="21.59"/>
<element name="C4" library="capacitor-wima" package="C27.5B13" value="" x="16.51" y="7.62"/>
<element name="D1" library="diode" package="DO34Z7" value="" x="69.85" y="34.29" rot="R180"/>
<element name="D2" library="diode" package="DO34Z7" value="" x="69.85" y="22.86" rot="R180"/>
<element name="D3" library="diode" package="DO15-12" value="" x="69.85" y="17.78"/>
<element name="D4" library="diode" package="DO15-12" value="" x="69.85" y="40.64"/>
<element name="L1" library="inductors" package="ED22" value="160u" x="92.71" y="39.37" rot="R270"/>
<element name="L2" library="inductors" package="ED22" value="160u" x="92.71" y="16.51" rot="R90"/>
<element name="Q1" library="transistor-power" package="TO220BV" value="IRF530" x="41.91" y="40.64" rot="R270"/>
<element name="Q2" library="transistor-power" package="TO220BV" value="IRF530" x="49.53" y="20.32" rot="R90"/>
<element name="R1" library="rcl" package="0207/10" value="" x="69.85" y="30.48"/>
<element name="R2" library="rcl" package="0207/10" value="" x="69.85" y="26.67" rot="R180"/>
<element name="R3" library="rcl" package="0309/12" value="" x="59.69" y="41.91" rot="R90"/>
<element name="R4" library="rcl" package="0309/12" value="" x="59.69" y="20.32" rot="R270"/>
<element name="X1" library="con-ptr500" package="AK500/2" value="" x="106.68" y="27.94" rot="R270">
<attribute name="MF" value="" x="106.68" y="27.94" size="1.778" layer="27" rot="R270" display="off"/>
<attribute name="OC_NEWARK" value="unknown" x="106.68" y="27.94" size="1.778" layer="27" rot="R270" display="off"/>
<attribute name="MPN" value="" x="106.68" y="27.94" size="1.778" layer="27" rot="R270" display="off"/>
<attribute name="OC_FARNELL" value="unknown" x="106.68" y="27.94" size="1.778" layer="27" rot="R270" display="off"/>
</element>
<element name="X2" library="con-ptr500" package="AK500/2" value="" x="38.1" y="6.35" rot="R270">
<attribute name="MF" value="" x="38.1" y="6.35" size="1.778" layer="27" rot="R270" display="off"/>
<attribute name="OC_NEWARK" value="unknown" x="38.1" y="6.35" size="1.778" layer="27" rot="R270" display="off"/>
<attribute name="MPN" value="" x="38.1" y="6.35" size="1.778" layer="27" rot="R270" display="off"/>
<attribute name="OC_FARNELL" value="unknown" x="38.1" y="6.35" size="1.778" layer="27" rot="R270" display="off"/>
</element>
</elements>
<signals>
<signal name="N$1">
<contactref element="R3" pad="2"/>
<contactref element="Q1" pad="G"/>
<contactref element="R1" pad="2"/>
<contactref element="D1" pad="C"/>
<contactref element="D3" pad="A"/>
<wire x1="73.66" y1="34.29" x2="74.93" y2="33.02" width="1.4224" layer="16"/>
<wire x1="74.93" y1="33.02" x2="74.93" y2="30.48" width="1.4224" layer="16"/>
<wire x1="74.93" y1="30.48" x2="69.85" y2="25.4" width="1.4224" layer="16"/>
<wire x1="69.85" y1="25.4" x2="69.85" y2="20.32" width="1.4224" layer="16"/>
<wire x1="69.85" y1="20.32" x2="72.39" y2="17.78" width="1.4224" layer="16"/>
<wire x1="72.39" y1="17.78" x2="76.2" y2="17.78" width="1.4224" layer="16"/>
<wire x1="59.69" y1="48.26" x2="60.96" y2="48.26" width="1.4224" layer="16"/>
<wire x1="60.96" y1="48.26" x2="73.66" y2="35.56" width="1.4224" layer="16"/>
<wire x1="73.66" y1="35.56" x2="73.66" y2="34.29" width="1.4224" layer="16"/>
<wire x1="59.69" y1="48.26" x2="54.61" y2="43.18" width="1.4224" layer="16"/>
<wire x1="54.61" y1="43.18" x2="39.37" y2="43.18" width="1.4224" layer="16"/>
</signal>
<signal name="N$3">
<contactref element="D2" pad="C"/>
<contactref element="Q2" pad="G"/>
<contactref element="R4" pad="2"/>
<contactref element="R2" pad="1"/>
<contactref element="D4" pad="A"/>
<wire x1="73.66" y1="22.86" x2="74.93" y2="24.13" width="1.4224" layer="16"/>
<wire x1="74.93" y1="24.13" x2="74.93" y2="26.67" width="1.4224" layer="16"/>
<wire x1="74.93" y1="26.67" x2="77.47" y2="29.21" width="1.4224" layer="16"/>
<wire x1="77.47" y1="29.21" x2="77.47" y2="39.37" width="1.4224" layer="16"/>
<wire x1="77.47" y1="39.37" x2="76.2" y2="40.64" width="1.4224" layer="16"/>
<wire x1="52.07" y1="17.78" x2="55.88" y2="13.97" width="1.4224" layer="16"/>
<wire x1="55.88" y1="13.97" x2="59.69" y2="13.97" width="1.4224" layer="16"/>
<wire x1="59.69" y1="13.97" x2="77.47" y2="13.97" width="1.4224" layer="16"/>
<wire x1="77.47" y1="13.97" x2="80.01" y2="16.51" width="1.4224" layer="16"/>
<wire x1="80.01" y1="16.51" x2="80.01" y2="19.05" width="1.4224" layer="16"/>
<wire x1="80.01" y1="19.05" x2="76.2" y2="22.86" width="1.4224" layer="16"/>
<wire x1="76.2" y1="22.86" x2="73.66" y2="22.86" width="1.4224" layer="16"/>
</signal>
<signal name="N$4">
<contactref element="R2" pad="2"/>
<contactref element="R1" pad="1"/>
<contactref element="D1" pad="A"/>
<contactref element="D2" pad="A"/>
<contactref element="Q1" pad="S"/>
<contactref element="Q2" pad="S"/>
<contactref element="X1" pad="2"/>
<wire x1="66.04" y1="34.29" x2="64.77" y2="33.02" width="1.9304" layer="16"/>
<wire x1="64.77" y1="33.02" x2="64.77" y2="30.48" width="1.9304" layer="16"/>
<wire x1="64.77" y1="30.48" x2="64.77" y2="26.67" width="1.9304" layer="16"/>
<wire x1="66.04" y1="22.86" x2="64.77" y2="24.13" width="1.9304" layer="16"/>
<wire x1="64.77" y1="24.13" x2="64.77" y2="26.67" width="1.9304" layer="16"/>
<wire x1="66.04" y1="22.86" x2="52.07" y2="22.86" width="1.9304" layer="16"/>
<wire x1="66.04" y1="34.29" x2="62.23" y2="38.1" width="1.9304" layer="16"/>
<wire x1="62.23" y1="38.1" x2="39.37" y2="38.1" width="1.9304" layer="16"/>
<wire x1="66.04" y1="22.86" x2="66.04" y2="20.32" width="1.9304" layer="16"/>
<wire x1="66.04" y1="20.32" x2="68.58" y2="17.78" width="1.9304" layer="16"/>
<via x="68.58" y="17.78" extent="1-16" drill="0.6" diameter="1.9304" shape="octagon"/>
<wire x1="106.68" y1="25.4254" x2="106.68" y2="24.13" width="1.9304" layer="16"/>
<wire x1="106.68" y1="24.13" x2="97.79" y2="15.24" width="1.9304" layer="16"/>
<via x="97.79" y="15.24" extent="1-16" drill="0.6" diameter="1.9304" shape="octagon"/>
<wire x1="97.79" y1="15.24" x2="88.9" y2="15.24" width="1.9304" layer="1"/>
<via x="88.9" y="15.24" extent="1-16" drill="0.6" diameter="1.9304" shape="octagon"/>
<wire x1="88.9" y1="15.24" x2="85.09" y2="15.24" width="1.9304" layer="16"/>
<wire x1="85.09" y1="15.24" x2="80.01" y2="10.16" width="1.9304" layer="16"/>
<wire x1="80.01" y1="10.16" x2="68.58" y2="10.16" width="1.9304" layer="16"/>
<via x="68.58" y="10.16" extent="1-16" drill="0.6" diameter="1.9304" shape="octagon"/>
<wire x1="68.58" y1="10.16" x2="68.58" y2="17.78" width="1.9304" layer="1"/>
</signal>
<signal name="N$5">
<contactref element="R3" pad="1"/>
<contactref element="R4" pad="1"/>
<contactref element="L1" pad="1"/>
<contactref element="L2" pad="2"/>
<contactref element="X1" pad="1"/>
<wire x1="59.69" y1="26.67" x2="59.69" y2="27.94" width="1.4224" layer="16"/>
<wire x1="59.69" y1="27.94" x2="59.69" y2="35.56" width="1.4224" layer="16"/>
<wire x1="106.68" y1="30.4546" x2="106.68" y2="41.91" width="1.9304" layer="16"/>
<wire x1="106.68" y1="41.91" x2="99.06" y2="49.53" width="1.9304" layer="16"/>
<wire x1="99.06" y1="49.53" x2="93.345" y2="49.53" width="1.9304" layer="16"/>
<wire x1="93.345" y1="49.53" x2="92.71" y2="50.165" width="1.4224" layer="16"/>
<wire x1="92.71" y1="10.795" x2="92.71" y2="25.4" width="1.9304" layer="16"/>
<wire x1="92.71" y1="25.4" x2="97.79" y2="30.48" width="1.9304" layer="16"/>
<wire x1="97.79" y1="30.48" x2="106.6546" y2="30.48" width="1.9304" layer="16"/>
<wire x1="106.6546" y1="30.48" x2="106.68" y2="30.4546" width="1.4224" layer="16"/>
<via x="59.69" y="27.94" extent="1-16" drill="0.6" diameter="1.9304" shape="octagon"/>
<wire x1="92.71" y1="25.4" x2="85.09" y2="25.4" width="1.9304" layer="16"/>
<wire x1="85.09" y1="25.4" x2="82.55" y2="27.94" width="1.9304" layer="16"/>
<via x="82.55" y="27.94" extent="1-16" drill="0.6" diameter="1.9304" shape="octagon"/>
<wire x1="59.69" y1="27.94" x2="82.55" y2="27.94" width="1.4224" layer="1"/>
</signal>
<signal name="N$8">
<contactref element="L1" pad="2"/>
<contactref element="Q1" pad="D"/>
<contactref element="C4" pad="1"/>
<contactref element="C3" pad="1"/>
<contactref element="C2" pad="1"/>
<contactref element="C1" pad="1"/>
<contactref element="D4" pad="C"/>
<contactref element="X2" pad="2"/>
<wire x1="63.5" y1="40.64" x2="39.37" y2="40.64" width="1.9304" layer="16"/>
<wire x1="92.71" y1="45.085" x2="73.025" y2="45.085" width="1.9304" layer="16"/>
<wire x1="73.025" y1="45.085" x2="66.04" y2="52.07" width="1.9304" layer="16"/>
<wire x1="66.04" y1="52.07" x2="40.64" y2="52.07" width="1.9304" layer="16"/>
<wire x1="40.64" y1="52.07" x2="40.005" y2="51.435" width="1.4224" layer="16"/>
<wire x1="40.005" y1="51.435" x2="34.29" y2="45.72" width="1.9304" layer="16"/>
<wire x1="34.29" y1="45.72" x2="34.29" y2="43.18" width="1.9304" layer="16"/>
<wire x1="34.29" y1="43.18" x2="36.83" y2="40.64" width="1.9304" layer="16"/>
<wire x1="36.83" y1="40.64" x2="39.37" y2="40.64" width="1.9304" layer="16"/>
<wire x1="2.794" y1="49.53" x2="2.794" y2="35.56" width="1.9304" layer="16"/>
<wire x1="2.794" y1="35.56" x2="2.794" y2="21.59" width="1.9304" layer="16"/>
<wire x1="2.794" y1="21.59" x2="2.794" y2="7.62" width="1.9304" layer="16"/>
<wire x1="2.794" y1="49.53" x2="20.32" y2="49.53" width="1.9304" layer="16"/>
<wire x1="20.32" y1="49.53" x2="24.13" y2="53.34" width="1.9304" layer="16"/>
<wire x1="24.13" y1="53.34" x2="38.1" y2="53.34" width="1.9304" layer="16"/>
<wire x1="38.1" y1="53.34" x2="40.005" y2="51.435" width="1.9304" layer="16"/>
<wire x1="2.794" y1="7.62" x2="2.794" y2="7.366" width="1.4224" layer="16"/>
<wire x1="2.794" y1="7.366" x2="6.35" y2="3.81" width="1.9304" layer="16"/>
<wire x1="6.35" y1="3.81" x2="38.0746" y2="3.81" width="1.9304" layer="16"/>
<wire x1="38.0746" y1="3.81" x2="38.1" y2="3.8354" width="1.4224" layer="16"/>
</signal>
<signal name="N$9">
<contactref element="C1" pad="2"/>
<contactref element="C4" pad="2"/>
<contactref element="C3" pad="2"/>
<contactref element="C2" pad="2"/>
<contactref element="L2" pad="1"/>
<contactref element="Q2" pad="D"/>
<contactref element="D3" pad="C"/>
<contactref element="X2" pad="1"/>
<wire x1="52.07" y1="20.32" x2="60.96" y2="20.32" width="1.9304" layer="16"/>
<wire x1="60.96" y1="20.32" x2="63.5" y2="17.78" width="1.4224" layer="16"/>
<wire x1="92.71" y1="5.715" x2="55.245" y2="5.715" width="1.9304" layer="16"/>
<wire x1="55.245" y1="5.715" x2="46.99" y2="13.97" width="1.9304" layer="16"/>
<wire x1="46.99" y1="13.97" x2="46.99" y2="17.78" width="1.9304" layer="16"/>
<wire x1="46.99" y1="17.78" x2="49.53" y2="20.32" width="1.9304" layer="16"/>
<wire x1="49.53" y1="20.32" x2="52.07" y2="20.32" width="1.9304" layer="16"/>
<wire x1="30.226" y1="49.53" x2="30.226" y2="35.56" width="1.9304" layer="16"/>
<wire x1="30.226" y1="35.56" x2="30.226" y2="21.59" width="1.9304" layer="16"/>
<wire x1="30.226" y1="21.59" x2="30.226" y2="7.62" width="1.9304" layer="16"/>
<wire x1="30.226" y1="21.59" x2="43.18" y2="21.59" width="1.9304" layer="16"/>
<wire x1="43.18" y1="21.59" x2="46.99" y2="17.78" width="1.9304" layer="16"/>
<wire x1="30.226" y1="7.62" x2="36.8554" y2="7.62" width="1.9304" layer="16"/>
<wire x1="36.8554" y1="7.62" x2="38.1" y2="8.8646" width="1.9304" layer="16"/>
</signal>
</signals>
</board>
</drawing>
</eagle>
